vcd/CheckVowel.vcd
$date
	Mon Jul 20 15:27:38 2020
$end
$version
	Icarus Verilog
$end
$timescale
	1s
$end
$scope module dut $end
$var wire 32 ! ret_pc [31:0] $end
$var wire 1 " reg_W_disable $end
$var wire 1 # load_s $end
$var wire 1 $ insn_x_sel $end
$var wire 32 % immediate [31:0] $end
$var wire 3 & imm_select [2:0] $end
$var wire 32 ' dmem_out [31:0] $end
$var wire 1 ( dmem_RW $end
$var wire 1 ) dmemW_sel $end
$var wire 32 * data_rs2 [31:0] $end
$var wire 32 + data_rs1 [31:0] $end
$var wire 32 , data_rd [31:0] $end
$var wire 32 - data_out [31:0] $end
$var wire 5 . addr_rs2 [4:0] $end
$var wire 5 / addr_rs1 [4:0] $end
$var wire 5 0 addr_rd [4:0] $end
$var wire 2 1 access_size [1:0] $end
$var wire 2 2 WBsel [1:0] $end
$var wire 1 3 RegWEn $end
$var wire 2 4 PC_sel [1:0] $end
$var wire 2 5 Bsel [1:0] $end
$var wire 1 6 BrUn $end
$var wire 2 7 Asel [1:0] $end
$var wire 4 8 ALUsel [3:0] $end
$var wire 32 9 ALUout [31:0] $end
$var reg 4 : ALUsel_x [3:0] $end
$var reg 2 ; Asel_x [1:0] $end
$var reg 1 < BrUn_x $end
$var reg 2 = Bsel_x [1:0] $end
$var reg 1 > RegWEn_m $end
$var reg 1 ? RegWEn_w $end
$var reg 1 @ RegWEn_x $end
$var reg 2 A WBsel_m [1:0] $end
$var reg 2 B WBsel_x [1:0] $end
$var reg 1 C access_size_m $end
$var reg 1 D access_size_x $end
$var reg 32 E alu_m [31:0] $end
$var reg 1 F clock $end
$var reg 32 G data_in [31:0] $end
$var reg 1 H dmem_RW_m $end
$var reg 1 I dmem_RW_x $end
$var reg 1 J dmem_W_sel_m $end
$var reg 1 K dmem_W_sel_x $end
$var reg 3 L imm_select_x [2:0] $end
$var reg 32 M insn_d [31:0] $end
$var reg 32 N insn_m [31:0] $end
$var reg 32 O insn_w [31:0] $end
$var reg 32 P insn_x [31:0] $end
$var reg 1 Q insn_x_sel_hold $end
$var reg 1 R load_s_m $end
$var reg 1 S load_s_x $end
$var reg 32 T pc_d [31:0] $end
$var reg 32 U pc_f [31:0] $end
$var reg 32 V pc_m [31:0] $end
$var reg 32 W pc_x [31:0] $end
$var reg 1 X read_write $end
$var reg 1 Y reg_W_disable_hold $end
$var reg 32 Z rs1_x [31:0] $end
$var reg 32 [ rs2_m [31:0] $end
$var reg 32 \ rs2_x [31:0] $end
$var reg 32 ] wb_w [31:0] $end
$var integer 32 ^ file [31:0] $end
$var integer 32 _ insn [31:0] $end
$var integer 32 ` lines [31:0] $end
$scope module alu $end
$var wire 4 a ALUsel [3:0] $end
$var wire 2 b Asel [1:0] $end
$var wire 2 c Bsel [1:0] $end
$var wire 32 d alu_m [31:0] $end
$var wire 32 e dataA [31:0] $end
$var wire 32 f dataB [31:0] $end
$var wire 32 g program_cntr [31:0] $end
$var wire 32 h wb_w [31:0] $end
$var wire 32 i imm [31:0] $end
$var reg 32 j A [31:0] $end
$var reg 32 k ALUout [31:0] $end
$var reg 32 l B [31:0] $end
$upscope $end
$scope module data_memory $end
$var wire 32 m address [31:0] $end
$var wire 1 F clock $end
$var wire 1 J dataW_sel $end
$var wire 1 R load_s $end
$var wire 1 H read_write $end
$var wire 32 n rs2_m [31:0] $end
$var wire 32 o wb_w [31:0] $end
$var wire 32 p data_out [31:0] $end
$var wire 32 q data_in [31:0] $end
$var wire 2 r access_size [1:0] $end
$var integer 32 s i [31:0] $end
$upscope $end
$scope module decoder $end
$var wire 1 F clock $end
$var wire 32 t instruction_in [31:0] $end
$var reg 4 u ALUsel [3:0] $end
$var reg 2 v Asel [1:0] $end
$var reg 1 6 BrUn $end
$var reg 2 w Bsel [1:0] $end
$var reg 1 x PCsel $end
$var reg 1 3 RegWEn $end
$var reg 2 y WBsel [1:0] $end
$var reg 2 z access_size [1:0] $end
$var reg 1 ( dmem_RW $end
$var reg 3 { imm_sel [2:0] $end
$var reg 12 | l_imm [11:0] $end
$var reg 13 } l_intermediate [12:0] $end
$var reg 1 # load_s $end
$var reg 5 ~ rd [4:0] $end
$var reg 5 !" rs1 [4:0] $end
$var reg 5 "" rs2 [4:0] $end
$var reg 6 #" shamt [5:0] $end
$var reg 20 $" u_imm [19:0] $end
$var reg 21 %" u_intermediate [20:0] $end
$upscope $end
$scope module forwarding_control $end
$var wire 32 &" insn_d [31:0] $end
$var wire 32 '" insn_m [31:0] $end
$var wire 32 (" insn_x [31:0] $end
$var reg 2 )" Asel [1:0] $end
$var reg 2 *" Bsel [1:0] $end
$var reg 1 ) dmemW_sel $end
$upscope $end
$scope module imm_generator $end
$var wire 3 +" imm_select [2:0] $end
$var wire 32 ," instruction_in [31:0] $end
$var reg 32 -" imm_out [31:0] $end
$upscope $end
$scope module insn_memory $end
$var wire 32 ." address [31:0] $end
$var wire 1 F clock $end
$var wire 32 /" data_in [31:0] $end
$var wire 1 X read_write $end
$var wire 32 0" data_out [31:0] $end
$var integer 32 1" i [31:0] $end
$upscope $end
$scope module jump_detect $end
$var wire 2 2" Asel [1:0] $end
$var wire 1 < BrUn $end
$var wire 2 3" Bsel [1:0] $end
$var wire 32 4" alu_m [31:0] $end
$var wire 32 5" insn_d [31:0] $end
$var wire 32 6" insn_x [31:0] $end
$var wire 32 7" pc_d [31:0] $end
$var wire 32 8" pc_x [31:0] $end
$var wire 32 9" rs1_x [31:0] $end
$var wire 32 :" rs2_x [31:0] $end
$var wire 32 ;" wb_w [31:0] $end
$var wire 32 <" rs1 [31:0] $end
$var reg 1 =" BrEq $end
$var reg 1 >" BrLT $end
$var reg 2 ?" PC_sel [1:0] $end
$var reg 32 @" input1 [31:0] $end
$var reg 32 A" input2 [31:0] $end
$var reg 32 B" ret_pc [31:0] $end
$upscope $end
$scope module register_file $end
$var wire 32 C" addr_rd [31:0] $end
$var wire 5 D" addr_rs1 [4:0] $end
$var wire 5 E" addr_rs2 [4:0] $end
$var wire 1 F clock $end
$var wire 32 F" data_rd [31:0] $end
$var wire 32 G" data_rs1 [31:0] $end
$var wire 32 H" data_rs2 [31:0] $end
$var wire 1 ? write_enable $end
$var integer 32 I" i [31:0] $end
$upscope $end
$scope module stall_detect $end
$var wire 32 J" insn_d [31:0] $end
$var wire 32 K" insn_m [31:0] $end
$var wire 32 L" insn_w [31:0] $end
$var wire 32 M" insn_x [31:0] $end
$var reg 1 $ insn_x_sel $end
$var reg 1 " reg_W_disable $end
$upscope $end
$scope module writeback $end
$var wire 32 N" ALUout [31:0] $end
$var wire 2 O" WBsel [1:0] $end
$var wire 32 P" data_r [31:0] $end
$var wire 32 Q" pc_m [31:0] $end
$var reg 32 R" data_rd [31:0] $end
$upscope $end
$upscope $end
$scope module dut $end
$scope module insn_memory $end
$upscope $end
$upscope $end
$scope module dut $end
$scope module decoder $end
$upscope $end
$upscope $end
$scope module dut $end
$scope module register_file $end
$upscope $end
$upscope $end
$scope module dut $end
$scope module imm_generator $end
$upscope $end
$upscope $end
$scope module dut $end
$scope module alu $end
$upscope $end
$upscope $end
$scope module dut $end
$scope module writeback $end
$upscope $end
$upscope $end
$scope module dut $end
$scope module data_memory $end
$upscope $end
$upscope $end
$scope module dut $end
$scope module forwarding_control $end
$upscope $end
$upscope $end
$scope module dut $end
$scope module stall_detect $end
$upscope $end
$upscope $end
$scope module dut $end
$scope module jump_detect $end
$upscope $end
$upscope $end
$enddefinitions $end
#0
$dumpvars
bx R"
bx Q"
bx P"
bx O"
bx N"
bx M"
bx L"
bx K"
bx J"
b100000 I"
bx H"
bx G"
bx F"
bx E"
bx D"
bx C"
bx B"
bx A"
bx @"
bx ?"
x>"
x="
bx <"
bx ;"
bx :"
bx 9"
bx 8"
bx 7"
bx 6"
bx 5"
bx 4"
bx 3"
bx 2"
b111101000010001111 1"
b11111101000000010000000100010011 0"
bx /"
b1000000000000000000000000 ."
bx -"
bx ,"
bx +"
bx *"
bx )"
bx ("
bx '"
bx &"
bx %"
bx $"
bx #"
bx ""
bx !"
bx ~
bx }
bx |
bx {
bx z
bx y
xx
bx w
bx v
bx u
bx t
b111101000010001111 s
bx r
bx q
bx p
bx o
bx n
bx m
bx l
bx k
bx j
bx i
bx h
bx g
bx f
bx e
bx d
bx c
bx b
bx a
b1111111 `
b0 _
b10000000000000000000000000000011 ^
bx ]
bx \
bx [
bx Z
xY
1X
bx W
bx V
b1000000000000000000000000 U
bx T
xS
xR
xQ
bx P
bx O
bx N
bx M
bx L
xK
xJ
xI
xH
bx G
1F
bx E
xD
xC
bx B
bx A
x@
x?
x>
bx =
x<
bx ;
bx :
bx 9
bx 8
bx 7
x6
bx 5
bx 4
x3
bx 2
bx 1
bx 0
bx /
bx .
b11111101000000010000000100010011 -
bx ,
bx +
bx *
x)
x(
bx '
bx &
bx %
x$
x#
x"
bx !
$end
#5
0F
#10
13
b0 8
b0 u
b111111010000 |
1(
b1 2
b1 y
b1 w
b0 v
b0 &
b0 {
b1000011110100001000111100 +
b1000011110100001000111100 <"
b1000011110100001000111100 G"
b10 /
b10 !"
b10 D"
b10 0
b10 ~
0)
b1 5
b1 *"
b0 7
b0 )"
0"
1$
b0 4
b0 ?"
b10000100010010011000100011 -
b10000100010010011000100011 0"
b11111101000000010000000100010011 M
b11111101000000010000000100010011 t
b11111101000000010000000100010011 &"
b11111101000000010000000100010011 5"
b11111101000000010000000100010011 J"
b1000000000000000000000000 T
b1000000000000000000000000 7"
b1000000000000000000000100 U
b1000000000000000000000100 ."
1F
#15
0F
#20
b1000011110100001000001100 9
b1000011110100001000001100 k
b11111111111111111111111111010000 l
b11111111111111111111111111010000 %
b11111111111111111111111111010000 i
b11111111111111111111111111010000 -"
b1000011110100001000111100 j
b0 1
b0 r
b0 z
0(
03
b1 &
b1 {
b0 *
b0 H"
b1 .
b1 ""
b1 E"
b101100 |
b10 7
b10 )"
b10010111000100011 -
b10010111000100011 0"
b1 B
1I
b0 :
b0 a
0K
b1 =
b1 c
b1 3"
b0 ;
b0 b
b0 2"
b0 L
b0 +"
1@
b1000011110100001000111100 Z
b1000011110100001000111100 e
b1000011110100001000111100 9"
b11111101000000010000000100010011 P
b11111101000000010000000100010011 ("
b11111101000000010000000100010011 ,"
b11111101000000010000000100010011 6"
b11111101000000010000000100010011 M"
b1000000000000000000000000 W
b1000000000000000000000000 g
b1000000000000000000000000 8"
b10000100010010011000100011 M
b10000100010010011000100011 t
b10000100010010011000100011 &"
b10000100010010011000100011 5"
b10000100010010011000100011 J"
b1000000000000000000000100 T
b1000000000000000000000100 7"
b1000000000000000000001000 U
b1000000000000000000001000 ."
0Y
1Q
1F
#25
0F
#30
b101100 l
b1000011110100001000001100 ,
b1000011110100001000001100 R"
b101100 %
b101100 i
b101100 -"
b1000011110100001000111000 9
b1000011110100001000111000 k
b1000011110100001000001100 j
b0 .
b0 ""
b0 E"
b11100 |
b11 7
b11 )"
b10010110000100011 -
b10010110000100011 0"
b1 A
b1 O"
1H
0J
1>
b11111101000000010000000100010011 N
b11111101000000010000000100010011 '"
b11111101000000010000000100010011 K"
b1000011110100001000001100 E
b1000011110100001000001100 d
b1000011110100001000001100 m
b1000011110100001000001100 4"
b1000011110100001000001100 N"
b1000000000000000000000000 V
b1000000000000000000000000 Q"
0I
0D
b10 ;
b10 b
b10 2"
b1 L
b1 +"
0@
b10000100010010011000100011 P
b10000100010010011000100011 ("
b10000100010010011000100011 ,"
b10000100010010011000100011 6"
b10000100010010011000100011 M"
b0 \
b0 f
b0 :"
b1000000000000000000000100 W
b1000000000000000000000100 g
b1000000000000000000000100 8"
b10010111000100011 M
b10010111000100011 t
b10010111000100011 &"
b10010111000100011 5"
b10010111000100011 J"
b1000000000000000000001000 T
b1000000000000000000001000 7"
b1000000000000000000001100 U
b1000000000000000000001100 ."
1F
#35
0F
#40
b1000011110100001000101000 9
b1000011110100001000101000 k
b11100 l
b0 q
b1000011110100001000111000 ,
b1000011110100001000111000 R"
b11100 %
b11100 i
b11100 -"
b11000 |
b0 7
b0 )"
1"
0$
b1000000000000011110110111 -
b1000000000000011110110111 0"
1?
b11111101000000010000000100010011 O
b11111101000000010000000100010011 C"
b11111101000000010000000100010011 L"
b1000011110100001000001100 ]
b1000011110100001000001100 h
b1000011110100001000001100 o
b1000011110100001000001100 ;"
b1000011110100001000001100 F"
0H
0C
0>
b10000100010010011000100011 N
b10000100010010011000100011 '"
b10000100010010011000100011 K"
b0 [
b0 n
b1000011110100001000111000 E
b1000011110100001000111000 d
b1000011110100001000111000 m
b1000011110100001000111000 4"
b1000011110100001000111000 N"
b1000000000000000000000100 V
b1000000000000000000000100 Q"
b11 ;
b11 b
b11 2"
b10010111000100011 P
b10010111000100011 ("
b10010111000100011 ,"
b10010111000100011 6"
b10010111000100011 M"
b1000000000000000000001000 W
b1000000000000000000001000 g
b1000000000000000000001000 8"
b10010110000100011 M
b10010110000100011 t
b10010110000100011 &"
b10010110000100011 5"
b10010110000100011 J"
b1000000000000000000001100 T
b1000000000000000000001100 7"
b1000000000000000000010000 U
b1000000000000000000010000 ."
1F
#45
0F
#50
b0 l
b1000011110100001000101000 ,
b1000011110100001000101000 R"
b0 %
b0 i
b0 -"
0"
1$
b0 9
b0 k
b0 j
0?
b10000100010010011000100011 O
b10000100010010011000100011 C"
b10000100010010011000100011 L"
b1000011110100001000111000 ]
b1000011110100001000111000 h
b1000011110100001000111000 o
b1000011110100001000111000 ;"
b1000011110100001000111000 F"
b10010111000100011 N
b10010111000100011 '"
b10010111000100011 K"
b1000011110100001000101000 E
b1000011110100001000101000 d
b1000011110100001000101000 m
b1000011110100001000101000 4"
b1000011110100001000101000 N"
b1000000000000000000001000 V
b1000000000000000000001000 Q"
1I
b0 ;
b0 b
b0 2"
b0 L
b0 +"
1@
b0 Z
b0 e
b0 9"
b10011 P
b10011 ("
b10011 ,"
b10011 6"
b10011 M"
b1000000000000000000001100 W
b1000000000000000000001100 g
b1000000000000000000001100 8"
b1000011110100001000001100 +
b1000011110100001000001100 <"
b1000011110100001000001100 G"
1Y
0Q
1F
#55
0F
#60
b0 ,
b0 R"
b1000011110100001000100100 9
b1000011110100001000100100 k
b11000 l
b1000011110100001000001100 j
b11000 %
b11000 i
b11000 -"
1(
b1010 8
b1010 u
b100 &
b100 {
13
b1111 0
b1111 ~
b1000000000000 $"
b11110100001111010011000000011 -
b11110100001111010011000000011 0"
b10010111000100011 O
b10010111000100011 C"
b10010111000100011 L"
b1000011110100001000101000 ]
b1000011110100001000101000 h
b1000011110100001000101000 o
b1000011110100001000101000 ;"
b1000011110100001000101000 F"
1H
1>
b10011 N
b10011 '"
b10011 K"
b0 E
b0 d
b0 m
b0 4"
b0 N"
b1000000000000000000001100 V
b1000000000000000000001100 Q"
0I
b1 L
b1 +"
0@
b1000011110100001000001100 Z
b1000011110100001000001100 e
b1000011110100001000001100 9"
b10010110000100011 P
b10010110000100011 ("
b10010110000100011 ,"
b10010110000100011 6"
b10010110000100011 M"
b1000000000000011110110111 M
b1000000000000011110110111 t
b1000000000000011110110111 &"
b1000000000000011110110111 5"
b1000000000000011110110111 J"
b1000000000000000000010000 T
b1000000000000000000010000 7"
b1000000000000000000010100 U
b1000000000000000000010100 ."
0Y
1Q
1F
#65
0F
#70
b1000000000000000000000000 l
b1000011110100001000100100 ,
b1000011110100001000100100 R"
b1000000000000000000000000 %
b1000000000000000000000000 i
b1000000000000000000000000 -"
b1000000000000000000000000 9
b1000000000000000000000000 k
1#
b0 2
b0 y
b0 8
b0 u
b0 &
b0 {
b111101000 |
bx +
bx <"
bx G"
b1111 /
b1111 !"
b1111 D"
b1100 0
b1100 ~
b10 7
b10 )"
b11110100001111000011100010011 -
b11110100001111000011100010011 0"
1?
b10011 O
b10011 C"
b10011 L"
b0 ]
b0 h
b0 o
b0 ;"
b0 F"
0H
0>
b10010110000100011 N
b10010110000100011 '"
b10010110000100011 K"
b1000011110100001000100100 E
b1000011110100001000100100 d
b1000011110100001000100100 m
b1000011110100001000100100 4"
b1000011110100001000100100 N"
1I
b1010 :
b1010 a
b100 L
b100 +"
1@
b1000000000000011110110111 P
b1000000000000011110110111 ("
b1000000000000011110110111 ,"
b1000000000000011110110111 6"
b1000000000000011110110111 M"
b1000000000000000000010000 W
b1000000000000000000010000 g
b1000000000000000000010000 8"
b11110100001111010011000000011 M
b11110100001111010011000000011 t
b11110100001111010011000000011 &"
b11110100001111010011000000011 5"
b11110100001111010011000000011 J"
b1000000000000000000010100 T
b1000000000000000000010100 7"
b1000000000000000000011000 U
b1000000000000000000011000 ."
1F
#75
0F
#80
b111101000 l
b11111101000000010000000100010011 '
b11111101000000010000000100010011 p
b11111101000000010000000100010011 P"
b1000000000000000000000000 ,
b1000000000000000000000000 R"
b111101000 %
b111101000 i
b111101000 -"
b1000000000000000111101000 9
b1000000000000000111101000 k
b1000000000000000000000000 j
b1 2
b1 y
b1110 0
b1110 ~
b11 7
b11 )"
b10001110010011010000011 -
b10001110010011010000011 0"
0?
b10010110000100011 O
b10010110000100011 C"
b10010110000100011 L"
b1000011110100001000100100 ]
b1000011110100001000100100 h
b1000011110100001000100100 o
b1000011110100001000100100 ;"
b1000011110100001000100100 F"
1H
1>
b1000000000000011110110111 N
b1000000000000011110110111 '"
b1000000000000011110110111 K"
b1000000000000000000000000 E
b1000000000000000000000000 d
b1000000000000000000000000 m
b1000000000000000000000000 4"
b1000000000000000000000000 N"
b1000000000000000000010000 V
b1000000000000000000010000 Q"
b0 B
1S
b0 :
b0 a
b10 ;
b10 b
b10 2"
b0 L
b0 +"
bx Z
bx e
bx 9"
b11110100001111010011000000011 P
b11110100001111010011000000011 ("
b11110100001111010011000000011 ,"
b11110100001111010011000000011 6"
b11110100001111010011000000011 M"
b1000000000000000000010100 W
b1000000000000000000010100 g
b1000000000000000000010100 8"
b11110100001111000011100010011 M
b11110100001111000011100010011 t
b11110100001111000011100010011 &"
b11110100001111000011100010011 5"
b11110100001111000011100010011 J"
b1000000000000000000011000 T
b1000000000000000000011000 7"
b1000000000000000000011100 U
b1000000000000000000011100 ."
1F
#85
0F
#90
b1100011011001010110100001000011 '
b1100011011001010110100001000011 p
b1100011011001010110100001000011 P"
b1100011011001010110100001000011 ,
b1100011011001010110100001000011 R"
b0 2
b0 y
b100 |
b1110 /
b1110 !"
b1110 D"
b1101 0
b1101 ~
b10 7
b10 )"
b11110100001111000011100010011 -
b11110100001111000011100010011 0"
1?
b1000000000000011110110111 O
b1000000000000011110110111 C"
b1000000000000011110110111 L"
b1000000000000000000000000 ]
b1000000000000000000000000 h
b1000000000000000000000000 o
b1000000000000000000000000 ;"
b1000000000000000000000000 F"
b0 A
b0 O"
1R
b11110100001111010011000000011 N
b11110100001111010011000000011 '"
b11110100001111010011000000011 K"
b1000000000000000111101000 E
b1000000000000000111101000 d
b1000000000000000111101000 m
b1000000000000000111101000 4"
b1000000000000000111101000 N"
b1000000000000000000010100 V
b1000000000000000000010100 Q"
b1 B
b11 ;
b11 b
b11 2"
b11110100001111000011100010011 P
b11110100001111000011100010011 ("
b11110100001111000011100010011 ,"
b11110100001111000011100010011 6"
b11110100001111000011100010011 M"
b1000000000000000000011000 W
b1000000000000000000011000 g
b1000000000000000000011000 8"
b10001110010011010000011 M
b10001110010011010000011 t
b10001110010011010000011 &"
b10001110010011010000011 5"
b10001110010011010000011 J"
b1000000000000000000011100 T
b1000000000000000000011100 7"
b1000000000000000000100000 U
b1000000000000000000100000 ."
1F
#95
0F
#100
b100 l
b1000000000000000111101000 ,
b1000000000000000111101000 R"
b100 %
b100 i
b100 -"
b1000000000000000111101100 9
b1000000000000000111101100 k
b1000000000000000111101000 j
b111101000 |
b1 2
b1 y
b1000000000000000000000000 +
b1000000000000000000000000 <"
b1000000000000000000000000 G"
b1111 /
b1111 !"
b1111 D"
b1110 0
b1110 ~
b0 7
b0 )"
b100001110010011100000011 -
b100001110010011100000011 0"
b11110100001111010011000000011 O
b11110100001111010011000000011 C"
b11110100001111010011000000011 L"
b1100011011001010110100001000011 ]
b1100011011001010110100001000011 h
b1100011011001010110100001000011 o
b1100011011001010110100001000011 ;"
b1100011011001010110100001000011 F"
b1 A
b1 O"
b11110100001111000011100010011 N
b11110100001111000011100010011 '"
b11110100001111000011100010011 K"
b1000000000000000000011000 V
b1000000000000000000011000 Q"
b0 B
b10 ;
b10 b
b10 2"
b10001110010011010000011 P
b10001110010011010000011 ("
b10001110010011010000011 ,"
b10001110010011010000011 6"
b10001110010011010000011 M"
b1000000000000000000011100 W
b1000000000000000000011100 g
b1000000000000000000011100 8"
b11110100001111000011100010011 M
b11110100001111000011100010011 t
b11110100001111000011100010011 &"
b11110100001111000011100010011 5"
b11110100001111000011100010011 J"
b1000000000000000000100000 T
b1000000000000000000100000 7"
b1000000000000000000100100 U
b1000000000000000000100100 ."
1F
#105
0F
#110
b111101000 l
b1110111011011110101011001101011 '
b1110111011011110101011001101011 p
b1110111011011110101011001101011 P"
b1110111011011110101011001101011 ,
b1110111011011110101011001101011 R"
b111101000 %
b111101000 i
b111101000 -"
b1000000000000000111101000 9
b1000000000000000111101000 k
b1000000000000000000000000 j
b0 2
b0 y
b1000 |
bx +
bx <"
bx G"
b1110 /
b1110 !"
b1110 D"
b10 7
b10 )"
1"
0$
b110000010010001000100011 -
b110000010010001000100011 0"
b11110100001111000011100010011 O
b11110100001111000011100010011 C"
b11110100001111000011100010011 L"
b1000000000000000111101000 ]
b1000000000000000111101000 h
b1000000000000000111101000 o
b1000000000000000111101000 ;"
b1000000000000000111101000 F"
b0 A
b0 O"
b10001110010011010000011 N
b10001110010011010000011 '"
b10001110010011010000011 K"
b1000000000000000111101100 E
b1000000000000000111101100 d
b1000000000000000111101100 m
b1000000000000000111101100 4"
b1000000000000000111101100 N"
b1000000000000000000011100 V
b1000000000000000000011100 Q"
b1 B
b0 ;
b0 b
b0 2"
b1000000000000000000000000 Z
b1000000000000000000000000 e
b1000000000000000000000000 9"
b11110100001111000011100010011 P
b11110100001111000011100010011 ("
b11110100001111000011100010011 ,"
b11110100001111000011100010011 6"
b11110100001111000011100010011 M"
b1000000000000000000100000 W
b1000000000000000000100000 g
b1000000000000000000100000 8"
b100001110010011100000011 M
b100001110010011100000011 t
b100001110010011100000011 &"
b100001110010011100000011 5"
b100001110010011100000011 J"
b1000000000000000000100100 T
b1000000000000000000100100 7"
b1000000000000000000101000 U
b1000000000000000000101000 ."
1F
#115
0F
#120
b0 l
b1100011011001010110100001000011 '
b1100011011001010110100001000011 p
b1100011011001010110100001000011 P"
b1000000000000000111101000 ,
b1000000000000000111101000 R"
b11 7
b11 )"
b0 %
b0 i
b0 -"
0"
1$
b0 9
b0 k
b0 j
b1000000000000000111101000 +
b1000000000000000111101000 <"
b1000000000000000111101000 G"
b10001110010011010000011 O
b10001110010011010000011 C"
b10001110010011010000011 L"
b1110111011011110101011001101011 ]
b1110111011011110101011001101011 h
b1110111011011110101011001101011 o
b1110111011011110101011001101011 ;"
b1110111011011110101011001101011 F"
b1 A
b1 O"
b11110100001111000011100010011 N
b11110100001111000011100010011 '"
b11110100001111000011100010011 K"
b1000000000000000111101000 E
b1000000000000000111101000 d
b1000000000000000111101000 m
b1000000000000000111101000 4"
b1000000000000000111101000 N"
b1000000000000000000100000 V
b1000000000000000000100000 Q"
b0 Z
b0 e
b0 9"
b10011 P
b10011 ("
b10011 ,"
b10011 6"
b10011 M"
b1000000000000000000100100 W
b1000000000000000000100100 g
b1000000000000000000100100 8"
1Y
0Q
1F
#125
0F
#130
bx '
bx p
bx P"
b0 ,
b0 R"
b1000000000000000111110000 9
b1000000000000000111110000 k
b1000 l
b1000000000000000111101000 j
b1000 %
b1000 i
b1000 -"
0(
03
b1 &
b1 {
b1100011011001010110100001000011 *
b1100011011001010110100001000011 H"
b1100 .
b1100 ""
b1100 E"
b1000011110100001000001100 +
b1000011110100001000001100 <"
b1000011110100001000001100 G"
b10 /
b10 !"
b10 D"
b100 |
b0 7
b0 )"
b110100010010010000100011 -
b110100010010010000100011 0"
b11110100001111000011100010011 O
b11110100001111000011100010011 C"
b11110100001111000011100010011 L"
b1000000000000000111101000 ]
b1000000000000000111101000 h
b1000000000000000111101000 o
b1000000000000000111101000 ;"
b1000000000000000111101000 F"
b10011 N
b10011 '"
b10011 K"
b0 E
b0 d
b0 m
b0 4"
b0 N"
b1000000000000000000100100 V
b1000000000000000000100100 Q"
b0 B
b11 ;
b11 b
b11 2"
b1000000000000000111101000 Z
b1000000000000000111101000 e
b1000000000000000111101000 9"
b100001110010011100000011 P
b100001110010011100000011 ("
b100001110010011100000011 ,"
b100001110010011100000011 6"
b100001110010011100000011 M"
b110000010010001000100011 M
b110000010010001000100011 t
b110000010010001000100011 &"
b110000010010001000100011 5"
b110000010010001000100011 J"
b1000000000000000000101000 T
b1000000000000000000101000 7"
b1000000000000000000101100 U
b1000000000000000000101100 ."
0Y
1Q
1F
#135
0F
#140
b100 l
b1010001000010110110001100101 '
b1010001000010110110001100101 p
b1010001000010110110001100101 P"
b1010001000010110110001100101 ,
b1010001000010110110001100101 R"
b100 %
b100 i
b100 -"
b1000011110100001000010000 9
b1000011110100001000010000 k
b1000011110100001000001100 j
b1110111011011110101011001101011 *
b1110111011011110101011001101011 H"
b1101 .
b1101 ""
b1101 E"
b1000 |
b111000010010011000100011 -
b111000010010011000100011 0"
b10011 O
b10011 C"
b10011 L"
b0 ]
b0 h
b0 o
b0 ;"
b0 F"
b0 A
b0 O"
b100001110010011100000011 N
b100001110010011100000011 '"
b100001110010011100000011 K"
b1000000000000000111110000 E
b1000000000000000111110000 d
b1000000000000000111110000 m
b1000000000000000111110000 4"
b1000000000000000111110000 N"
0I
b0 ;
b0 b
b0 2"
b1 L
b1 +"
0@
b1000011110100001000001100 Z
b1000011110100001000001100 e
b1000011110100001000001100 9"
b110000010010001000100011 P
b110000010010001000100011 ("
b110000010010001000100011 ,"
b110000010010001000100011 6"
b110000010010001000100011 M"
b1100011011001010110100001000011 \
b1100011011001010110100001000011 f
b1100011011001010110100001000011 :"
b1000000000000000000101000 W
b1000000000000000000101000 g
b1000000000000000000101000 8"
b110100010010010000100011 M
b110100010010010000100011 t
b110100010010010000100011 &"
b110100010010010000100011 5"
b110100010010010000100011 J"
b1000000000000000000101100 T
b1000000000000000000101100 7"
b1000000000000000000110000 U
b1000000000000000000110000 ."
1F
#145
0F
#150
bx ,
bx R"
b1000011110100001000010100 9
b1000011110100001000010100 k
b1000 l
b1100011011001010110100001000011 q
bx '
bx p
bx P"
b1000 %
b1000 i
b1000 -"
b1000000000000000111101000 *
b1000000000000000111101000 H"
b1110 .
b1110 ""
b1110 E"
b1100 |
1"
0$
b11110100001111000011110010011 -
b11110100001111000011110010011 0"
b100001110010011100000011 O
b100001110010011100000011 C"
b100001110010011100000011 L"
b1010001000010110110001100101 ]
b1010001000010110110001100101 h
b1010001000010110110001100101 o
b1010001000010110110001100101 ;"
b1010001000010110110001100101 F"
0H
0>
b110000010010001000100011 N
b110000010010001000100011 '"
b110000010010001000100011 K"
b1100011011001010110100001000011 [
b1100011011001010110100001000011 n
b1000011110100001000010000 E
b1000011110100001000010000 d
b1000011110100001000010000 m
b1000011110100001000010000 4"
b1000011110100001000010000 N"
b1000000000000000000101000 V
b1000000000000000000101000 Q"
b110100010010010000100011 P
b110100010010010000100011 ("
b110100010010010000100011 ,"
b110100010010010000100011 6"
b110100010010010000100011 M"
b1110111011011110101011001101011 \
b1110111011011110101011001101011 f
b1110111011011110101011001101011 :"
b1000000000000000000101100 W
b1000000000000000000101100 g
b1000000000000000000101100 8"
b111000010010011000100011 M
b111000010010011000100011 t
b111000010010011000100011 &"
b111000010010011000100011 5"
b111000010010011000100011 J"
b1000000000000000000110000 T
b1000000000000000000110000 7"
b1000000000000000000110100 U
b1000000000000000000110100 ."
1F
#155
0F
#160
b0 l
b1110111011011110101011001101011 q
b0 %
b0 i
b0 -"
0"
1$
b0 9
b0 k
b0 j
b1010001000010110110001100101 *
b1010001000010110110001100101 H"
0?
b110000010010001000100011 O
b110000010010001000100011 C"
b110000010010001000100011 L"
bx ]
bx h
bx o
bx ;"
bx F"
b110100010010010000100011 N
b110100010010010000100011 '"
b110100010010010000100011 K"
b1110111011011110101011001101011 [
b1110111011011110101011001101011 n
b1000011110100001000010100 E
b1000011110100001000010100 d
b1000011110100001000010100 m
b1000011110100001000010100 4"
b1000011110100001000010100 N"
b1000000000000000000101100 V
b1000000000000000000101100 Q"
b1 B
1I
b0 L
b0 +"
1@
b0 Z
b0 e
b0 9"
b10011 P
b10011 ("
b10011 ,"
b10011 6"
b10011 M"
b1000000000000000111101000 \
b1000000000000000111101000 f
b1000000000000000111101000 :"
b1000000000000000000110000 W
b1000000000000000000110000 g
b1000000000000000000110000 8"
1Y
0Q
1F
#165
0F
