vcd/SimpleAdd.vcd
$date
	Mon Jul 20 15:21:38 2020
$end
$version
	Icarus Verilog
$end
$timescale
	1s
$end
$scope module dut $end
$var wire 32 ! ret_pc [31:0] $end
$var wire 1 " reg_W_disable $end
$var wire 1 # load_s $end
$var wire 1 $ insn_x_sel $end
$var wire 32 % immediate [31:0] $end
$var wire 3 & imm_select [2:0] $end
$var wire 32 ' dmem_out [31:0] $end
$var wire 1 ( dmem_RW $end
$var wire 1 ) dmemW_sel $end
$var wire 32 * data_rs2 [31:0] $end
$var wire 32 + data_rs1 [31:0] $end
$var wire 32 , data_rd [31:0] $end
$var wire 32 - data_out [31:0] $end
$var wire 5 . addr_rs2 [4:0] $end
$var wire 5 / addr_rs1 [4:0] $end
$var wire 5 0 addr_rd [4:0] $end
$var wire 2 1 access_size [1:0] $end
$var wire 2 2 WBsel [1:0] $end
$var wire 1 3 RegWEn $end
$var wire 2 4 PC_sel [1:0] $end
$var wire 2 5 Bsel [1:0] $end
$var wire 1 6 BrUn $end
$var wire 2 7 Asel [1:0] $end
$var wire 4 8 ALUsel [3:0] $end
$var wire 32 9 ALUout [31:0] $end
$var reg 4 : ALUsel_x [3:0] $end
$var reg 2 ; Asel_x [1:0] $end
$var reg 1 < BrUn_x $end
$var reg 2 = Bsel_x [1:0] $end
$var reg 1 > RegWEn_m $end
$var reg 1 ? RegWEn_w $end
$var reg 1 @ RegWEn_x $end
$var reg 2 A WBsel_m [1:0] $end
$var reg 2 B WBsel_x [1:0] $end
$var reg 1 C access_size_m $end
$var reg 1 D access_size_x $end
$var reg 32 E alu_m [31:0] $end
$var reg 1 F clock $end
$var reg 32 G data_in [31:0] $end
$var reg 1 H dmem_RW_m $end
$var reg 1 I dmem_RW_x $end
$var reg 1 J dmem_W_sel_m $end
$var reg 1 K dmem_W_sel_x $end
$var reg 3 L imm_select_x [2:0] $end
$var reg 32 M insn_d [31:0] $end
$var reg 32 N insn_m [31:0] $end
$var reg 32 O insn_w [31:0] $end
$var reg 32 P insn_x [31:0] $end
$var reg 1 Q insn_x_sel_hold $end
$var reg 1 R load_s_m $end
$var reg 1 S load_s_x $end
$var reg 32 T pc_d [31:0] $end
$var reg 32 U pc_f [31:0] $end
$var reg 32 V pc_m [31:0] $end
$var reg 32 W pc_x [31:0] $end
$var reg 1 X read_write $end
$var reg 1 Y reg_W_disable_hold $end
$var reg 32 Z rs1_x [31:0] $end
$var reg 32 [ rs2_m [31:0] $end
$var reg 32 \ rs2_x [31:0] $end
$var reg 32 ] wb_w [31:0] $end
$var integer 32 ^ file [31:0] $end
$var integer 32 _ insn [31:0] $end
$var integer 32 ` lines [31:0] $end
$scope module alu $end
$var wire 4 a ALUsel [3:0] $end
$var wire 2 b Asel [1:0] $end
$var wire 2 c Bsel [1:0] $end
$var wire 32 d alu_m [31:0] $end
$var wire 32 e dataA [31:0] $end
$var wire 32 f dataB [31:0] $end
$var wire 32 g program_cntr [31:0] $end
$var wire 32 h wb_w [31:0] $end
$var wire 32 i imm [31:0] $end
$var reg 32 j A [31:0] $end
$var reg 32 k ALUout [31:0] $end
$var reg 32 l B [31:0] $end
$upscope $end
$scope module data_memory $end
$var wire 32 m address [31:0] $end
$var wire 1 F clock $end
$var wire 1 J dataW_sel $end
$var wire 1 R load_s $end
$var wire 1 H read_write $end
$var wire 32 n rs2_m [31:0] $end
$var wire 32 o wb_w [31:0] $end
$var wire 32 p data_out [31:0] $end
$var wire 32 q data_in [31:0] $end
$var wire 2 r access_size [1:0] $end
$var integer 32 s i [31:0] $end
$upscope $end
$scope module decoder $end
$var wire 1 F clock $end
$var wire 32 t instruction_in [31:0] $end
$var reg 4 u ALUsel [3:0] $end
$var reg 2 v Asel [1:0] $end
$var reg 1 6 BrUn $end
$var reg 2 w Bsel [1:0] $end
$var reg 1 x PCsel $end
$var reg 1 3 RegWEn $end
$var reg 2 y WBsel [1:0] $end
$var reg 2 z access_size [1:0] $end
$var reg 1 ( dmem_RW $end
$var reg 3 { imm_sel [2:0] $end
$var reg 12 | l_imm [11:0] $end
$var reg 13 } l_intermediate [12:0] $end
$var reg 1 # load_s $end
$var reg 5 ~ rd [4:0] $end
$var reg 5 !" rs1 [4:0] $end
$var reg 5 "" rs2 [4:0] $end
$var reg 6 #" shamt [5:0] $end
$var reg 20 $" u_imm [19:0] $end
$var reg 21 %" u_intermediate [20:0] $end
$upscope $end
$scope module forwarding_control $end
$var wire 32 &" insn_d [31:0] $end
$var wire 32 '" insn_m [31:0] $end
$var wire 32 (" insn_x [31:0] $end
$var reg 2 )" Asel [1:0] $end
$var reg 2 *" Bsel [1:0] $end
$var reg 1 ) dmemW_sel $end
$upscope $end
$scope module imm_generator $end
$var wire 3 +" imm_select [2:0] $end
$var wire 32 ," instruction_in [31:0] $end
$var reg 32 -" imm_out [31:0] $end
$upscope $end
$scope module insn_memory $end
$var wire 32 ." address [31:0] $end
$var wire 1 F clock $end
$var wire 32 /" data_in [31:0] $end
$var wire 1 X read_write $end
$var wire 32 0" data_out [31:0] $end
$var integer 32 1" i [31:0] $end
$upscope $end
$scope module jump_detect $end
$var wire 2 2" Asel [1:0] $end
$var wire 1 < BrUn $end
$var wire 2 3" Bsel [1:0] $end
$var wire 32 4" alu_m [31:0] $end
$var wire 32 5" insn_d [31:0] $end
$var wire 32 6" insn_x [31:0] $end
$var wire 32 7" pc_d [31:0] $end
$var wire 32 8" pc_x [31:0] $end
$var wire 32 9" rs1_x [31:0] $end
$var wire 32 :" rs2_x [31:0] $end
$var wire 32 ;" wb_w [31:0] $end
$var wire 32 <" rs1 [31:0] $end
$var reg 1 =" BrEq $end
$var reg 1 >" BrLT $end
$var reg 2 ?" PC_sel [1:0] $end
$var reg 32 @" input1 [31:0] $end
$var reg 32 A" input2 [31:0] $end
$var reg 32 B" ret_pc [31:0] $end
$upscope $end
$scope module register_file $end
$var wire 32 C" addr_rd [31:0] $end
$var wire 5 D" addr_rs1 [4:0] $end
$var wire 5 E" addr_rs2 [4:0] $end
$var wire 1 F clock $end
$var wire 32 F" data_rd [31:0] $end
$var wire 32 G" data_rs1 [31:0] $end
$var wire 32 H" data_rs2 [31:0] $end
$var wire 1 ? write_enable $end
$var integer 32 I" i [31:0] $end
$upscope $end
$scope module stall_detect $end
$var wire 32 J" insn_d [31:0] $end
$var wire 32 K" insn_m [31:0] $end
$var wire 32 L" insn_w [31:0] $end
$var wire 32 M" insn_x [31:0] $end
$var reg 1 $ insn_x_sel $end
$var reg 1 " reg_W_disable $end
$upscope $end
$scope module writeback $end
$var wire 32 N" ALUout [31:0] $end
$var wire 2 O" WBsel [1:0] $end
$var wire 32 P" data_r [31:0] $end
$var wire 32 Q" pc_m [31:0] $end
$var reg 32 R" data_rd [31:0] $end
$upscope $end
$upscope $end
$scope module dut $end
$scope module insn_memory $end
$upscope $end
$upscope $end
$scope module dut $end
$scope module decoder $end
$upscope $end
$upscope $end
$scope module dut $end
$scope module register_file $end
$upscope $end
$upscope $end
$scope module dut $end
$scope module imm_generator $end
$upscope $end
$upscope $end
$scope module dut $end
$scope module alu $end
$upscope $end
$upscope $end
$scope module dut $end
$scope module writeback $end
$upscope $end
$upscope $end
$scope module dut $end
$scope module data_memory $end
$upscope $end
$upscope $end
$scope module dut $end
$scope module forwarding_control $end
$upscope $end
$upscope $end
$scope module dut $end
$scope module stall_detect $end
$upscope $end
$upscope $end
$scope module dut $end
$scope module jump_detect $end
$upscope $end
$upscope $end
$enddefinitions $end
#0
$dumpvars
bx R"
bx Q"
bx P"
bx O"
bx N"
bx M"
bx L"
bx K"
bx J"
b100000 I"
bx H"
bx G"
bx F"
bx E"
bx D"
bx C"
bx B"
bx A"
bx @"
bx ?"
x>"
x="
bx <"
bx ;"
bx :"
bx 9"
bx 8"
bx 7"
bx 6"
bx 5"
bx 4"
bx 3"
bx 2"
b111101000010001111 1"
b11111110000000010000000100010011 0"
bx /"
b1000000000000000000000000 ."
bx -"
bx ,"
bx +"
bx *"
bx )"
bx ("
bx '"
bx &"
bx %"
bx $"
bx #"
bx ""
bx !"
bx ~
bx }
bx |
bx {
bx z
bx y
xx
bx w
bx v
bx u
bx t
b111101000010001111 s
bx r
bx q
bx p
bx o
bx n
bx m
bx l
bx k
bx j
bx i
bx h
bx g
bx f
bx e
bx d
bx c
bx b
bx a
b100111 `
b1000000001100111 _
b10000000000000000000000000000011 ^
bx ]
bx \
bx [
bx Z
xY
1X
bx W
bx V
b1000000000000000000000000 U
bx T
xS
xR
xQ
bx P
bx O
bx N
bx M
bx L
xK
xJ
xI
xH
bx G
1F
bx E
xD
xC
bx B
bx A
x@
x?
x>
bx =
x<
bx ;
bx :
bx 9
bx 8
bx 7
x6
bx 5
bx 4
x3
bx 2
bx 1
bx 0
bx /
bx .
b11111110000000010000000100010011 -
bx ,
bx +
bx *
x)
x(
bx '
bx &
bx %
x$
x#
x"
bx !
$end
#5
0F
#10
13
b0 8
b0 u
b111111100000 |
1(
b1 2
b1 y
b1 w
b0 v
b0 &
b0 {
b1000011110100001000111100 +
b1000011110100001000111100 <"
b1000011110100001000111100 G"
b10 /
b10 !"
b10 D"
b10 0
b10 ~
0)
b1 5
b1 *"
b0 7
b0 )"
0"
1$
b0 4
b0 ?"
b100010010111000100011 -
b100010010111000100011 0"
b11111110000000010000000100010011 M
b11111110000000010000000100010011 t
b11111110000000010000000100010011 &"
b11111110000000010000000100010011 5"
b11111110000000010000000100010011 J"
b1000000000000000000000000 T
b1000000000000000000000000 7"
b1000000000000000000000100 U
b1000000000000000000000100 ."
1F
#15
0F
#20
b1000011110100001000011100 9
b1000011110100001000011100 k
b11111111111111111111111111100000 l
b11111111111111111111111111100000 %
b11111111111111111111111111100000 i
b11111111111111111111111111100000 -"
b1000011110100001000111100 j
b0 1
b0 r
b0 z
0(
03
b1 &
b1 {
b0 *
b0 H"
b1 .
b1 ""
b1 E"
b11100 |
b10 7
b10 )"
b1100000000011110010011 -
b1100000000011110010011 0"
b1 B
1I
b0 :
b0 a
0K
b1 =
b1 c
b1 3"
b0 ;
b0 b
b0 2"
b0 L
b0 +"
1@
b1000011110100001000111100 Z
b1000011110100001000111100 e
b1000011110100001000111100 9"
b11111110000000010000000100010011 P
b11111110000000010000000100010011 ("
b11111110000000010000000100010011 ,"
b11111110000000010000000100010011 6"
b11111110000000010000000100010011 M"
b1000000000000000000000000 W
b1000000000000000000000000 g
b1000000000000000000000000 8"
b100010010111000100011 M
b100010010111000100011 t
b100010010111000100011 &"
b100010010111000100011 5"
b100010010111000100011 J"
b1000000000000000000000100 T
b1000000000000000000000100 7"
b1000000000000000000001000 U
b1000000000000000000001000 ."
0Y
1Q
1F
#25
0F
#30
b11100 l
b1000011110100001000011100 ,
b1000011110100001000011100 R"
b11100 %
b11100 i
b11100 -"
b1000011110100001000111000 9
b1000011110100001000111000 k
b1000011110100001000011100 j
13
b11 |
1(
b0 &
b0 {
b0 +
b0 <"
b0 G"
b0 /
b0 !"
b0 D"
b1111 0
b1111 ~
b0 7
b0 )"
b111100010010011000100011 -
b111100010010011000100011 0"
b1 A
b1 O"
1H
0J
1>
b11111110000000010000000100010011 N
b11111110000000010000000100010011 '"
b11111110000000010000000100010011 K"
b1000011110100001000011100 E
b1000011110100001000011100 d
b1000011110100001000011100 m
b1000011110100001000011100 4"
b1000011110100001000011100 N"
b1000000000000000000000000 V
b1000000000000000000000000 Q"
0I
0D
b10 ;
b10 b
b10 2"
b1 L
b1 +"
0@
b100010010111000100011 P
b100010010111000100011 ("
b100010010111000100011 ,"
b100010010111000100011 6"
b100010010111000100011 M"
b0 \
b0 f
b0 :"
b1000000000000000000000100 W
b1000000000000000000000100 g
b1000000000000000000000100 8"
b1100000000011110010011 M
b1100000000011110010011 t
b1100000000011110010011 &"
b1100000000011110010011 5"
b1100000000011110010011 J"
b1000000000000000000001000 T
b1000000000000000000001000 7"
b1000000000000000000001100 U
b1000000000000000000001100 ."
1F
#35
0F
#40
b11 l
b0 q
b1000011110100001000111000 ,
b1000011110100001000111000 R"
b11 %
b11 i
b11 -"
b11 9
b11 k
b0 j
0(
03
b1 &
b1 {
bx *
bx H"
b1111 .
b1111 ""
b1111 E"
b1000011110100001000111100 +
b1000011110100001000111100 <"
b1000011110100001000111100 G"
b10 /
b10 !"
b10 D"
b1100 |
1)
1"
0$
b1000000000011110010011 -
b1000000000011110010011 0"
1?
b11111110000000010000000100010011 O
b11111110000000010000000100010011 C"
b11111110000000010000000100010011 L"
b1000011110100001000011100 ]
b1000011110100001000011100 h
b1000011110100001000011100 o
b1000011110100001000011100 ;"
b1000011110100001000011100 F"
0H
0C
0>
b100010010111000100011 N
b100010010111000100011 '"
b100010010111000100011 K"
b0 [
b0 n
b1000011110100001000111000 E
b1000011110100001000111000 d
b1000011110100001000111000 m
b1000011110100001000111000 4"
b1000011110100001000111000 N"
b1000000000000000000000100 V
b1000000000000000000000100 Q"
1I
b0 ;
b0 b
b0 2"
b0 L
b0 +"
1@
b0 Z
b0 e
b0 9"
b1100000000011110010011 P
b1100000000011110010011 ("
b1100000000011110010011 ,"
b1100000000011110010011 6"
b1100000000011110010011 M"
b1000000000000000000001000 W
b1000000000000000000001000 g
b1000000000000000000001000 8"
b111100010010011000100011 M
b111100010010011000100011 t
b111100010010011000100011 &"
b111100010010011000100011 5"
b111100010010011000100011 J"
b1000000000000000000001100 T
b1000000000000000000001100 7"
b1000000000000000000010000 U
b1000000000000000000010000 ."
1F
#45
0F
#50
b0 9
b0 k
b0 l
b11 ,
b11 R"
0)
b0 %
b0 i
b0 -"
0?
b100010010111000100011 O
b100010010111000100011 C"
b100010010111000100011 L"
b1000011110100001000111000 ]
b1000011110100001000111000 h
b1000011110100001000111000 o
b1000011110100001000111000 ;"
b1000011110100001000111000 F"
1H
1>
b1100000000011110010011 N
b1100000000011110010011 '"
b1100000000011110010011 K"
b11 E
b11 d
b11 m
b11 4"
b11 N"
b1000000000000000000001000 V
b1000000000000000000001000 Q"
b10011 P
b10011 ("
b10011 ,"
b10011 6"
b10011 M"
bx \
bx f
bx :"
b1000000000000000000001100 W
b1000000000000000000001100 g
b1000000000000000000001100 8"
b1000011110100001000011100 +
b1000011110100001000011100 <"
b1000011110100001000011100 G"
1Y
0Q
1F
#55
0F
#60
bx q
b0 ,
b0 R"
1?
b1100000000011110010011 O
b1100000000011110010011 C"
b1100000000011110010011 L"
b11 ]
b11 h
b11 o
b11 ;"
b11 F"
b10011 N
b10011 '"
b10011 K"
bx [
bx n
b0 E
b0 d
b0 m
b0 4"
b0 N"
b1000000000000000000001100 V
b1000000000000000000001100 Q"
1F
#65
0F
#70
0"
1$
b10011 O
b10011 C"
b10011 L"
b0 ]
b0 h
b0 o
b0 ;"
b0 F"
b11 *
b11 H"
1F
#75
0F
#80
b1100 l
b1100 %
b1100 i
b1100 -"
b1000011110100001000101000 9
b1000011110100001000101000 k
b1000011110100001000011100 j
13
b10 |
1(
b0 &
b0 {
b0 +
b0 <"
b0 G"
b0 /
b0 !"
b0 D"
b111100010010010000100011 -
b111100010010010000100011 0"
0I
b1 L
b1 +"
0@
b1000011110100001000011100 Z
b1000011110100001000011100 e
b1000011110100001000011100 9"
b111100010010011000100011 P
b111100010010011000100011 ("
b111100010010011000100011 ,"
b111100010010011000100011 6"
b111100010010011000100011 M"
b11 \
b11 f
b11 :"
b1000000000011110010011 M
b1000000000011110010011 t
b1000000000011110010011 &"
b1000000000011110010011 5"
b1000000000011110010011 J"
b1000000000000000000010000 T
b1000000000000000000010000 7"
b1000000000000000000010100 U
b1000000000000000000010100 ."
0Y
1Q
1F
#85
0F
#90
b10 l
b11 q
b1000011110100001000101000 ,
b1000011110100001000101000 R"
b10 %
b10 i
b10 -"
b10 9
b10 k
b0 j
0(
03
b1 &
b1 {
b1000011110100001000011100 +
b1000011110100001000011100 <"
b1000011110100001000011100 G"
b10 /
b10 !"
b10 D"
b1000 |
1)
b10010001000100011 -
b10010001000100011 0"
0H
0>
b111100010010011000100011 N
b111100010010011000100011 '"
b111100010010011000100011 K"
b11 [
b11 n
b1000011110100001000101000 E
b1000011110100001000101000 d
b1000011110100001000101000 m
b1000011110100001000101000 4"
b1000011110100001000101000 N"
1I
b0 L
b0 +"
1@
b0 Z
b0 e
b0 9"
b1000000000011110010011 P
b1000000000011110010011 ("
b1000000000011110010011 ,"
b1000000000011110010011 6"
b1000000000011110010011 M"
b1000000000000000000010000 W
b1000000000000000000010000 g
b1000000000000000000010000 8"
b111100010010010000100011 M
b111100010010010000100011 t
b111100010010010000100011 &"
b111100010010010000100011 5"
b111100010010010000100011 J"
b1000000000000000000010100 T
b1000000000000000000010100 7"
b1000000000000000000011000 U
b1000000000000000000011000 ."
1F
#95
0F
#100
b1000 l
b10 ,
b10 R"
b1000 %
b1000 i
b1000 -"
b1000011110100001000100100 9
b1000011110100001000100100 k
b1000011110100001000011100 j
b0 *
b0 H"
b0 .
b0 ""
b0 E"
b100 |
0)
b110000010010011100000011 -
b110000010010011100000011 0"
0?
b111100010010011000100011 O
b111100010010011000100011 C"
b111100010010011000100011 L"
b1000011110100001000101000 ]
b1000011110100001000101000 h
b1000011110100001000101000 o
b1000011110100001000101000 ;"
b1000011110100001000101000 F"
1H
1>
b1000000000011110010011 N
b1000000000011110010011 '"
b1000000000011110010011 K"
b10 E
b10 d
b10 m
b10 4"
b10 N"
b1000000000000000000010000 V
b1000000000000000000010000 Q"
0I
1K
b1 L
b1 +"
0@
b1000011110100001000011100 Z
b1000011110100001000011100 e
b1000011110100001000011100 9"
b111100010010010000100011 P
b111100010010010000100011 ("
b111100010010010000100011 ,"
b111100010010010000100011 6"
b111100010010010000100011 M"
b1000000000000000000010100 W
b1000000000000000000010100 g
b1000000000000000000010100 8"
b10010001000100011 M
b10010001000100011 t
b10010001000100011 &"
b10010001000100011 5"
b10010001000100011 J"
b1000000000000000000011000 T
b1000000000000000000011000 7"
b1000000000000000000011100 U
b1000000000000000000011100 ."
1F
#105
0F
#110
b1000011110100001000100000 9
b1000011110100001000100000 k
b100 l
b10 q
b1000011110100001000100100 ,
b1000011110100001000100100 R"
b100 %
b100 i
b100 -"
1#
13
b0 2
b0 y
1(
b0 &
b0 {
b1100 |
b1110 0
b1110 ~
b100000010010011110000011 -
b100000010010011110000011 0"
1?
b1000000000011110010011 O
b1000000000011110010011 C"
b1000000000011110010011 L"
b10 ]
b10 h
b10 o
b10 ;"
b10 F"
0H
1J
0>
b111100010010010000100011 N
b111100010010010000100011 '"
b111100010010010000100011 K"
b1000011110100001000100100 E
b1000011110100001000100100 d
b1000011110100001000100100 m
b1000011110100001000100100 4"
b1000011110100001000100100 N"
b1000000000000000000010100 V
b1000000000000000000010100 Q"
0K
b10010001000100011 P
b10010001000100011 ("
b10010001000100011 ,"
b10010001000100011 6"
b10010001000100011 M"
b0 \
b0 f
b0 :"
b1000000000000000000011000 W
b1000000000000000000011000 g
b1000000000000000000011000 8"
b110000010010011100000011 M
b110000010010011100000011 t
b110000010010011100000011 &"
b110000010010011100000011 5"
b110000010010011100000011 J"
b1000000000000000000011100 T
b1000000000000000000011100 7"
b1000000000000000000100000 U
b1000000000000000000100000 ."
1F
#115
0F
#120
b1000011110100001000101000 9
b1000011110100001000101000 k
b1100 l
b0 q
b1000011110100001000100000 ,
b1000011110100001000100000 R"
b1100 %
b1100 i
b1100 -"
b1000 |
b1111 0
b1111 ~
b111101110000011110110011 -
b111101110000011110110011 0"
0?
b111100010010010000100011 O
b111100010010010000100011 C"
b111100010010010000100011 L"
b1000011110100001000100100 ]
b1000011110100001000100100 h
b1000011110100001000100100 o
b1000011110100001000100100 ;"
b1000011110100001000100100 F"
0J
b10010001000100011 N
b10010001000100011 '"
b10010001000100011 K"
b0 [
b0 n
b1000011110100001000100000 E
b1000011110100001000100000 d
b1000011110100001000100000 m
b1000011110100001000100000 4"
b1000011110100001000100000 N"
b1000000000000000000011000 V
b1000000000000000000011000 Q"
b0 B
1I
1S
b0 L
b0 +"
1@
b110000010010011100000011 P
b110000010010011100000011 ("
b110000010010011100000011 ,"
b110000010010011100000011 6"
b110000010010011100000011 M"
b1000000000000000000011100 W
b1000000000000000000011100 g
b1000000000000000000011100 8"
b100000010010011110000011 M
b100000010010011110000011 t
b100000010010011110000011 &"
b100000010010011110000011 5"
b100000010010011110000011 J"
b1000000000000000000100000 T
b1000000000000000000100000 7"
b1000000000000000000100100 U
b1000000000000000000100100 ."
1F
#125
0F
#130
b1000011110100001000100100 9
b1000011110100001000100100 k
b1000 l
b11 ,
b11 R"
b1000 %
b1000 i
b1000 -"
b1 2
b1 y
b0 w
b10 *
b10 H"
b1111 .
b1111 ""
b1111 E"
bx +
bx <"
bx G"
b1110 /
b1110 !"
b1110 D"
b0 5
b0 *"
b11 7
b11 )"
1"
0$
b111100010010001000100011 -
b111100010010001000100011 0"
b11 '
b11 p
b11 P"
b10010001000100011 O
b10010001000100011 C"
b10010001000100011 L"
b1000011110100001000100000 ]
b1000011110100001000100000 h
b1000011110100001000100000 o
b1000011110100001000100000 ;"
b1000011110100001000100000 F"
b0 A
b0 O"
1H
1R
1>
b110000010010011100000011 N
b110000010010011100000011 '"
b110000010010011100000011 K"
b1000011110100001000101000 E
b1000011110100001000101000 d
b1000011110100001000101000 m
b1000011110100001000101000 4"
b1000011110100001000101000 N"
b1000000000000000000011100 V
b1000000000000000000011100 Q"
b100000010010011110000011 P
b100000010010011110000011 ("
b100000010010011110000011 ,"
b100000010010011110000011 6"
b100000010010011110000011 M"
b1000000000000000000100000 W
b1000000000000000000100000 g
b1000000000000000000100000 8"
b111101110000011110110011 M
b111101110000011110110011 t
b111101110000011110110011 &"
b111101110000011110110011 5"
b111101110000011110110011 J"
b1000000000000000000100100 T
b1000000000000000000100100 7"
b1000000000000000000101000 U
b1000000000000000000101000 ."
1F
#135
0F
#140
b10 ,
b10 R"
b0 l
b10 '
b10 p
b10 P"
b11 5
b11 *"
b0 7
b0 )"
b0 %
b0 i
b0 -"
b0 9
b0 k
b0 j
1?
b110000010010011100000011 O
b110000010010011100000011 C"
b110000010010011100000011 L"
b11 ]
b11 h
b11 o
b11 ;"
b11 F"
b100000010010011110000011 N
b100000010010011110000011 '"
b100000010010011110000011 K"
b1000011110100001000100100 E
b1000011110100001000100100 d
b1000011110100001000100100 m
b1000011110100001000100100 4"
b1000011110100001000100100 N"
b1000000000000000000100000 V
b1000000000000000000100000 Q"
b1 B
b0 Z
b0 e
b0 9"
b10011 P
b10011 ("
b10011 ,"
b10011 6"
b10011 M"
b10 \
b10 f
b10 :"
b1000000000000000000100100 W
b1000000000000000000100100 g
b1000000000000000000100100 8"
1Y
0Q
1F
#145
0F
#150
b0 5
b0 *"
b10 q
bx '
bx p
bx P"
b0 ,
b0 R"
b100000010010011110000011 O
b100000010010011110000011 C"
b100000010010011110000011 L"
b10 ]
b10 h
b10 o
b10 ;"
b10 F"
b1 A
b1 O"
b10011 N
b10011 '"
b10011 K"
b10 [
b10 n
b0 E
b0 d
b0 m
b0 4"
b0 N"
b1000000000000000000100100 V
b1000000000000000000100100 Q"
b11 +
b11 <"
b11 G"
1F
#155
0F
#160
0"
1$
b10011 O
b10011 C"
b10011 L"
b0 ]
b0 h
b0 o
b0 ;"
b0 F"
1F
#165
0F
#170
b101 9
b101 k
b10 l
b11 j
b1111 %
b1111 i
b1111 -"
0(
03
b1 &
b1 {
b1 w
b1000011110100001000011100 +
b1000011110100001000011100 <"
b1000011110100001000011100 G"
b10 /
b10 !"
b10 D"
b100 |
1)
b1 5
b1 *"
b10000010010010100000011 -
b10000010010010100000011 0"
b0 =
b0 c
b0 3"
b11 Z
b11 e
b11 9"
b111101110000011110110011 P
b111101110000011110110011 ("
b111101110000011110110011 ,"
b111101110000011110110011 6"
b111101110000011110110011 M"
b111100010010001000100011 M
b111100010010001000100011 t
b111100010010001000100011 &"
b111100010010001000100011 5"
b111100010010001000100011 J"
b1000000000000000000101000 T
b1000000000000000000101000 7"
b1000000000000000000101100 U
b1000000000000000000101100 ."
0Y
1Q
1F
#175
0F
#180
b101 ,
b101 R"
b100 %
b100 i
b100 -"
b1000011110100001000100000 9
b1000011110100001000100000 k
b100 l
b1000011110100001000011100 j
13
b0 2
b0 y
1(
b0 &
b0 {
b1010 0
b1010 ~
0)
b1100000000000000011101111 -
b1100000000000000011101111 0"
b111101110000011110110011 N
b111101110000011110110011 '"
b111101110000011110110011 K"
b101 E
b101 d
b101 m
b101 4"
b101 N"
0I
1K
b1 =
b1 c
b1 3"
b1 L
b1 +"
0@
b1000011110100001000011100 Z
b1000011110100001000011100 e
b1000011110100001000011100 9"
b111100010010001000100011 P
b111100010010001000100011 ("
b111100010010001000100011 ,"
b111100010010001000100011 6"
b111100010010001000100011 M"
b1000000000000000000101000 W
b1000000000000000000101000 g
b1000000000000000000101000 8"
b10000010010010100000011 M
b10000010010010100000011 t
b10000010010010100000011 &"
b10000010010010100000011 5"
b10000010010010100000011 J"
b1000000000000000000101100 T
b1000000000000000000101100 7"
b1000000000000000000110000 U
b1000000000000000000110000 ."
1F
#185
0F
#190
b101 q
b0 '
b0 p
b0 P"
b1000011110100001000100000 ,
b1000011110100001000100000 R"
b10 2
b10 y
b1 v
b11 &
b11 {
b11000 %"
b1100 $"
b1 0
b1 ~
b1 7
b1 )"
b1 4
b1 ?"
b1000000000000000001001000 !
b1000000000000000001001000 B"
b1010000011110010011 -
b1010000011110010011 0"
b111101110000011110110011 O
b111101110000011110110011 C"
b111101110000011110110011 L"
b101 ]
b101 h
b101 o
b101 ;"
b101 F"
0H
1J
0>
b111100010010001000100011 N
b111100010010001000100011 '"
b111100010010001000100011 K"
b1000011110100001000100000 E
b1000011110100001000100000 d
b1000011110100001000100000 m
b1000011110100001000100000 4"
b1000011110100001000100000 N"
b1000000000000000000101000 V
b1000000000000000000101000 Q"
b0 B
1I
0K
b0 L
b0 +"
1@
b10000010010010100000011 P
b10000010010010100000011 ("
b10000010010010100000011 ,"
b10000010010010100000011 6"
b10000010010010100000011 M"
b1000000000000000000101100 W
b1000000000000000000101100 g
b1000000000000000000101100 8"
b1100000000000000011101111 M
b1100000000000000011101111 t
b1100000000000000011101111 &"
b1100000000000000011101111 5"
b1100000000000000011101111 J"
b1000000000000000000110000 T
b1000000000000000000110000 7"
b1000000000000000000110100 U
b1000000000000000000110100 ."
1F
#195
0F
#200
b11000 l
b101 '
b101 p
b101 P"
b10 q
b101 ,
b101 R"
b11000 %
b11000 i
b11000 -"
b1000000000000000001001000 9
b1000000000000000001001000 k
b1000000000000000000110000 j
b0 |
b1 2
b1 y
b0 v
b0 &
b0 {
b0 +
b0 <"
b0 G"
b0 /
b0 !"
b0 D"
b0 0
b0 ~
b0 7
b0 )"
b0 4
b0 ?"
b11111110000000010000000100010011 -
b11111110000000010000000100010011 0"
b101 *
b101 H"
0?
b111100010010001000100011 O
b111100010010001000100011 C"
b111100010010001000100011 L"
b1000011110100001000100000 ]
b1000011110100001000100000 h
b1000011110100001000100000 o
b1000011110100001000100000 ;"
b1000011110100001000100000 F"
b0 A
b0 O"
1H
0J
1>
b10000010010010100000011 N
b10000010010010100000011 '"
b10000010010010100000011 K"
b1000000000000000000101100 V
b1000000000000000000101100 Q"
b10 B
b1 ;
b1 b
b1 2"
b11 L
b11 +"
b1100000000000000011101111 P
b1100000000000000011101111 ("
b1100000000000000011101111 ,"
b1100000000000000011101111 6"
b1100000000000000011101111 M"
b1000000000000000000110000 W
b1000000000000000000110000 g
b1000000000000000000110000 8"
b10011 M
b10011 t
b10011 &"
b10011 5"
b10011 J"
b1000000000000000000110100 T
b1000000000000000000110100 7"
b1000000000000000001001000 U
b1000000000000000001001000 ."
1F
#205
0F
#210
b0 l
b11111110000000010000000100010011 '
b11111110000000010000000100010011 p
b11111110000000010000000100010011 P"
b1000000000000000000110100 ,
b1000000000000000000110100 R"
b0 %
b0 i
b0 -"
b0 9
b0 k
b0 j
b111111100000 |
b1000011110100001000011100 +
b1000011110100001000011100 <"
b1000011110100001000011100 G"
b10 /
b10 !"
b10 D"
b10 0
b10 ~
b100010010111000100011 -
b100010010111000100011 0"
1?
b10000010010010100000011 O
b10000010010010100000011 C"
b10000010010010100000011 L"
b101 ]
b101 h
b101 o
b101 ;"
b101 F"
b10 A
b10 O"
b1100000000000000011101111 N
b1100000000000000011101111 '"
b1100000000000000011101111 K"
b1000000000000000001001000 E
b1000000000000000001001000 d
b1000000000000000001001000 m
b1000000000000000001001000 4"
b1000000000000000001001000 N"
b1000000000000000000110000 V
b1000000000000000000110000 Q"
b1 B
b0 ;
b0 b
b0 2"
b0 L
b0 +"
b0 Z
b0 e
b0 9"
b10011 P
b10011 ("
b10011 ,"
b10011 6"
b10011 M"
b101 \
b101 f
b101 :"
b1000000000000000000110100 W
b1000000000000000000110100 g
b1000000000000000000110100 8"
b11111110000000010000000100010011 M
b11111110000000010000000100010011 t
b11111110000000010000000100010011 &"
b11111110000000010000000100010011 5"
b11111110000000010000000100010011 J"
b1000000000000000001001000 T
b1000000000000000001001000 7"
b1000000000000000001001100 U
b1000000000000000001001100 ."
1F
#215
0F
