vcd/SwapShift.vcd
$date
	Mon Jul 20 15:24:28 2020
$end
$version
	Icarus Verilog
$end
$timescale
	1s
$end
$scope module dut $end
$var wire 32 ! ret_pc [31:0] $end
$var wire 1 " reg_W_disable $end
$var wire 1 # load_s $end
$var wire 1 $ insn_x_sel $end
$var wire 32 % immediate [31:0] $end
$var wire 3 & imm_select [2:0] $end
$var wire 32 ' dmem_out [31:0] $end
$var wire 1 ( dmem_RW $end
$var wire 1 ) dmemW_sel $end
$var wire 32 * data_rs2 [31:0] $end
$var wire 32 + data_rs1 [31:0] $end
$var wire 32 , data_rd [31:0] $end
$var wire 32 - data_out [31:0] $end
$var wire 5 . addr_rs2 [4:0] $end
$var wire 5 / addr_rs1 [4:0] $end
$var wire 5 0 addr_rd [4:0] $end
$var wire 2 1 access_size [1:0] $end
$var wire 2 2 WBsel [1:0] $end
$var wire 1 3 RegWEn $end
$var wire 2 4 PC_sel [1:0] $end
$var wire 2 5 Bsel [1:0] $end
$var wire 1 6 BrUn $end
$var wire 2 7 Asel [1:0] $end
$var wire 4 8 ALUsel [3:0] $end
$var wire 32 9 ALUout [31:0] $end
$var reg 4 : ALUsel_x [3:0] $end
$var reg 2 ; Asel_x [1:0] $end
$var reg 1 < BrUn_x $end
$var reg 2 = Bsel_x [1:0] $end
$var reg 1 > RegWEn_m $end
$var reg 1 ? RegWEn_w $end
$var reg 1 @ RegWEn_x $end
$var reg 2 A WBsel_m [1:0] $end
$var reg 2 B WBsel_x [1:0] $end
$var reg 1 C access_size_m $end
$var reg 1 D access_size_x $end
$var reg 32 E alu_m [31:0] $end
$var reg 1 F clock $end
$var reg 32 G data_in [31:0] $end
$var reg 1 H dmem_RW_m $end
$var reg 1 I dmem_RW_x $end
$var reg 1 J dmem_W_sel_m $end
$var reg 1 K dmem_W_sel_x $end
$var reg 3 L imm_select_x [2:0] $end
$var reg 32 M insn_d [31:0] $end
$var reg 32 N insn_m [31:0] $end
$var reg 32 O insn_w [31:0] $end
$var reg 32 P insn_x [31:0] $end
$var reg 1 Q insn_x_sel_hold $end
$var reg 1 R load_s_m $end
$var reg 1 S load_s_x $end
$var reg 32 T pc_d [31:0] $end
$var reg 32 U pc_f [31:0] $end
$var reg 32 V pc_m [31:0] $end
$var reg 32 W pc_x [31:0] $end
$var reg 1 X read_write $end
$var reg 1 Y reg_W_disable_hold $end
$var reg 32 Z rs1_x [31:0] $end
$var reg 32 [ rs2_m [31:0] $end
$var reg 32 \ rs2_x [31:0] $end
$var reg 32 ] wb_w [31:0] $end
$var integer 32 ^ file [31:0] $end
$var integer 32 _ insn [31:0] $end
$var integer 32 ` lines [31:0] $end
$scope module alu $end
$var wire 4 a ALUsel [3:0] $end
$var wire 2 b Asel [1:0] $end
$var wire 2 c Bsel [1:0] $end
$var wire 32 d alu_m [31:0] $end
$var wire 32 e dataA [31:0] $end
$var wire 32 f dataB [31:0] $end
$var wire 32 g program_cntr [31:0] $end
$var wire 32 h wb_w [31:0] $end
$var wire 32 i imm [31:0] $end
$var reg 32 j A [31:0] $end
$var reg 32 k ALUout [31:0] $end
$var reg 32 l B [31:0] $end
$upscope $end
$scope module data_memory $end
$var wire 32 m address [31:0] $end
$var wire 1 F clock $end
$var wire 1 J dataW_sel $end
$var wire 1 R load_s $end
$var wire 1 H read_write $end
$var wire 32 n rs2_m [31:0] $end
$var wire 32 o wb_w [31:0] $end
$var wire 32 p data_out [31:0] $end
$var wire 32 q data_in [31:0] $end
$var wire 2 r access_size [1:0] $end
$var integer 32 s i [31:0] $end
$upscope $end
$scope module decoder $end
$var wire 1 F clock $end
$var wire 32 t instruction_in [31:0] $end
$var reg 4 u ALUsel [3:0] $end
$var reg 2 v Asel [1:0] $end
$var reg 1 6 BrUn $end
$var reg 2 w Bsel [1:0] $end
$var reg 1 x PCsel $end
$var reg 1 3 RegWEn $end
$var reg 2 y WBsel [1:0] $end
$var reg 2 z access_size [1:0] $end
$var reg 1 ( dmem_RW $end
$var reg 3 { imm_sel [2:0] $end
$var reg 12 | l_imm [11:0] $end
$var reg 13 } l_intermediate [12:0] $end
$var reg 1 # load_s $end
$var reg 5 ~ rd [4:0] $end
$var reg 5 !" rs1 [4:0] $end
$var reg 5 "" rs2 [4:0] $end
$var reg 6 #" shamt [5:0] $end
$var reg 20 $" u_imm [19:0] $end
$var reg 21 %" u_intermediate [20:0] $end
$upscope $end
$scope module forwarding_control $end
$var wire 32 &" insn_d [31:0] $end
$var wire 32 '" insn_m [31:0] $end
$var wire 32 (" insn_x [31:0] $end
$var reg 2 )" Asel [1:0] $end
$var reg 2 *" Bsel [1:0] $end
$var reg 1 ) dmemW_sel $end
$upscope $end
$scope module imm_generator $end
$var wire 3 +" imm_select [2:0] $end
$var wire 32 ," instruction_in [31:0] $end
$var reg 32 -" imm_out [31:0] $end
$upscope $end
$scope module insn_memory $end
$var wire 32 ." address [31:0] $end
$var wire 1 F clock $end
$var wire 32 /" data_in [31:0] $end
$var wire 1 X read_write $end
$var wire 32 0" data_out [31:0] $end
$var integer 32 1" i [31:0] $end
$upscope $end
$scope module jump_detect $end
$var wire 2 2" Asel [1:0] $end
$var wire 1 < BrUn $end
$var wire 2 3" Bsel [1:0] $end
$var wire 32 4" alu_m [31:0] $end
$var wire 32 5" insn_d [31:0] $end
$var wire 32 6" insn_x [31:0] $end
$var wire 32 7" pc_d [31:0] $end
$var wire 32 8" pc_x [31:0] $end
$var wire 32 9" rs1_x [31:0] $end
$var wire 32 :" rs2_x [31:0] $end
$var wire 32 ;" wb_w [31:0] $end
$var wire 32 <" rs1 [31:0] $end
$var reg 1 =" BrEq $end
$var reg 1 >" BrLT $end
$var reg 2 ?" PC_sel [1:0] $end
$var reg 32 @" input1 [31:0] $end
$var reg 32 A" input2 [31:0] $end
$var reg 32 B" ret_pc [31:0] $end
$upscope $end
$scope module register_file $end
$var wire 32 C" addr_rd [31:0] $end
$var wire 5 D" addr_rs1 [4:0] $end
$var wire 5 E" addr_rs2 [4:0] $end
$var wire 1 F clock $end
$var wire 32 F" data_rd [31:0] $end
$var wire 32 G" data_rs1 [31:0] $end
$var wire 32 H" data_rs2 [31:0] $end
$var wire 1 ? write_enable $end
$var integer 32 I" i [31:0] $end
$upscope $end
$scope module stall_detect $end
$var wire 32 J" insn_d [31:0] $end
$var wire 32 K" insn_m [31:0] $end
$var wire 32 L" insn_w [31:0] $end
$var wire 32 M" insn_x [31:0] $end
$var reg 1 $ insn_x_sel $end
$var reg 1 " reg_W_disable $end
$upscope $end
$scope module writeback $end
$var wire 32 N" ALUout [31:0] $end
$var wire 2 O" WBsel [1:0] $end
$var wire 32 P" data_r [31:0] $end
$var wire 32 Q" pc_m [31:0] $end
$var reg 32 R" data_rd [31:0] $end
$upscope $end
$upscope $end
$scope module dut $end
$scope module insn_memory $end
$upscope $end
$upscope $end
$scope module dut $end
$scope module decoder $end
$upscope $end
$upscope $end
$scope module dut $end
$scope module register_file $end
$upscope $end
$upscope $end
$scope module dut $end
$scope module imm_generator $end
$upscope $end
$upscope $end
$scope module dut $end
$scope module alu $end
$upscope $end
$upscope $end
$scope module dut $end
$scope module writeback $end
$upscope $end
$upscope $end
$scope module dut $end
$scope module data_memory $end
$upscope $end
$upscope $end
$scope module dut $end
$scope module forwarding_control $end
$upscope $end
$upscope $end
$scope module dut $end
$scope module stall_detect $end
$upscope $end
$upscope $end
$scope module dut $end
$scope module jump_detect $end
$upscope $end
$upscope $end
$enddefinitions $end
#0
$dumpvars
bx R"
bx Q"
bx P"
bx O"
bx N"
bx M"
bx L"
bx K"
bx J"
b100000 I"
bx H"
bx G"
bx F"
bx E"
bx D"
bx C"
bx B"
bx A"
bx @"
bx ?"
x>"
x="
bx <"
bx ;"
bx :"
bx 9"
bx 8"
bx 7"
bx 6"
bx 5"
bx 4"
bx 3"
bx 2"
b111101000010001111 1"
b11111110000000010000000100010011 0"
bx /"
b1000000000000000000000000 ."
bx -"
bx ,"
bx +"
bx *"
bx )"
bx ("
bx '"
bx &"
bx %"
bx $"
bx #"
bx ""
bx !"
bx ~
bx }
bx |
bx {
bx z
bx y
xx
bx w
bx v
bx u
bx t
b111101000010001111 s
bx r
bx q
bx p
bx o
bx n
bx m
bx l
bx k
bx j
bx i
bx h
bx g
bx f
bx e
bx d
bx c
bx b
bx a
b1001000 `
b1000000001100111 _
b10000000000000000000000000000011 ^
bx ]
bx \
bx [
bx Z
xY
1X
bx W
bx V
b1000000000000000000000000 U
bx T
xS
xR
xQ
bx P
bx O
bx N
bx M
bx L
xK
xJ
xI
xH
bx G
1F
bx E
xD
xC
bx B
bx A
x@
x?
x>
bx =
x<
bx ;
bx :
bx 9
bx 8
bx 7
x6
bx 5
bx 4
x3
bx 2
bx 1
bx 0
bx /
bx .
b11111110000000010000000100010011 -
bx ,
bx +
bx *
x)
x(
bx '
bx &
bx %
x$
x#
x"
bx !
$end
#5
0F
#10
13
b0 8
b0 u
b111111100000 |
1(
b1 2
b1 y
b1 w
b0 v
b0 &
b0 {
b1000011110100001000111100 +
b1000011110100001000111100 <"
b1000011110100001000111100 G"
b10 /
b10 !"
b10 D"
b10 0
b10 ~
0)
b1 5
b1 *"
b0 7
b0 )"
0"
1$
b0 4
b0 ?"
b100010010111000100011 -
b100010010111000100011 0"
b11111110000000010000000100010011 M
b11111110000000010000000100010011 t
b11111110000000010000000100010011 &"
b11111110000000010000000100010011 5"
b11111110000000010000000100010011 J"
b1000000000000000000000000 T
b1000000000000000000000000 7"
b1000000000000000000000100 U
b1000000000000000000000100 ."
1F
#15
0F
#20
b1000011110100001000011100 9
b1000011110100001000011100 k
b11111111111111111111111111100000 l
b11111111111111111111111111100000 %
b11111111111111111111111111100000 i
b11111111111111111111111111100000 -"
b1000011110100001000111100 j
b0 1
b0 r
b0 z
0(
03
b1 &
b1 {
b0 *
b0 H"
b1 .
b1 ""
b1 E"
b11100 |
b10 7
b10 )"
b10100000000011110010011 -
b10100000000011110010011 0"
b1 B
1I
b0 :
b0 a
0K
b1 =
b1 c
b1 3"
b0 ;
b0 b
b0 2"
b0 L
b0 +"
1@
b1000011110100001000111100 Z
b1000011110100001000111100 e
b1000011110100001000111100 9"
b11111110000000010000000100010011 P
b11111110000000010000000100010011 ("
b11111110000000010000000100010011 ,"
b11111110000000010000000100010011 6"
b11111110000000010000000100010011 M"
b1000000000000000000000000 W
b1000000000000000000000000 g
b1000000000000000000000000 8"
b100010010111000100011 M
b100010010111000100011 t
b100010010111000100011 &"
b100010010111000100011 5"
b100010010111000100011 J"
b1000000000000000000000100 T
b1000000000000000000000100 7"
b1000000000000000000001000 U
b1000000000000000000001000 ."
0Y
1Q
1F
#25
0F
#30
b11100 l
b1000011110100001000011100 ,
b1000011110100001000011100 R"
b11100 %
b11100 i
b11100 -"
b1000011110100001000111000 9
b1000011110100001000111000 k
b1000011110100001000011100 j
13
b101 |
1(
b0 &
b0 {
b0 +
b0 <"
b0 G"
b0 /
b0 !"
b0 D"
b1111 0
b1111 ~
b0 7
b0 )"
b111100010010001000100011 -
b111100010010001000100011 0"
b1 A
b1 O"
1H
0J
1>
b11111110000000010000000100010011 N
b11111110000000010000000100010011 '"
b11111110000000010000000100010011 K"
b1000011110100001000011100 E
b1000011110100001000011100 d
b1000011110100001000011100 m
b1000011110100001000011100 4"
b1000011110100001000011100 N"
b1000000000000000000000000 V
b1000000000000000000000000 Q"
0I
0D
b10 ;
b10 b
b10 2"
b1 L
b1 +"
0@
b100010010111000100011 P
b100010010111000100011 ("
b100010010111000100011 ,"
b100010010111000100011 6"
b100010010111000100011 M"
b0 \
b0 f
b0 :"
b1000000000000000000000100 W
b1000000000000000000000100 g
b1000000000000000000000100 8"
b10100000000011110010011 M
b10100000000011110010011 t
b10100000000011110010011 &"
b10100000000011110010011 5"
b10100000000011110010011 J"
b1000000000000000000001000 T
b1000000000000000000001000 7"
b1000000000000000000001100 U
b1000000000000000000001100 ."
1F
#35
0F
#40
b101 l
b0 q
b1000011110100001000111000 ,
b1000011110100001000111000 R"
b101 %
b101 i
b101 -"
b101 9
b101 k
b0 j
0(
03
b1 &
b1 {
bx *
bx H"
b1111 .
b1111 ""
b1111 E"
b1000011110100001000111100 +
b1000011110100001000111100 <"
b1000011110100001000111100 G"
b10 /
b10 !"
b10 D"
b100 |
1)
1"
0$
b100100000000011110010011 -
b100100000000011110010011 0"
1?
b11111110000000010000000100010011 O
b11111110000000010000000100010011 C"
b11111110000000010000000100010011 L"
b1000011110100001000011100 ]
b1000011110100001000011100 h
b1000011110100001000011100 o
b1000011110100001000011100 ;"
b1000011110100001000011100 F"
0H
0C
0>
b100010010111000100011 N
b100010010111000100011 '"
b100010010111000100011 K"
b0 [
b0 n
b1000011110100001000111000 E
b1000011110100001000111000 d
b1000011110100001000111000 m
b1000011110100001000111000 4"
b1000011110100001000111000 N"
b1000000000000000000000100 V
b1000000000000000000000100 Q"
1I
b0 ;
b0 b
b0 2"
b0 L
b0 +"
1@
b0 Z
b0 e
b0 9"
b10100000000011110010011 P
b10100000000011110010011 ("
b10100000000011110010011 ,"
b10100000000011110010011 6"
b10100000000011110010011 M"
b1000000000000000000001000 W
b1000000000000000000001000 g
b1000000000000000000001000 8"
b111100010010001000100011 M
b111100010010001000100011 t
b111100010010001000100011 &"
b111100010010001000100011 5"
b111100010010001000100011 J"
b1000000000000000000001100 T
b1000000000000000000001100 7"
b1000000000000000000010000 U
b1000000000000000000010000 ."
1F
#45
0F
#50
b0 9
b0 k
b0 l
b101 ,
b101 R"
0)
b0 %
b0 i
b0 -"
0?
b100010010111000100011 O
b100010010111000100011 C"
b100010010111000100011 L"
b1000011110100001000111000 ]
b1000011110100001000111000 h
b1000011110100001000111000 o
b1000011110100001000111000 ;"
b1000011110100001000111000 F"
1H
1>
b10100000000011110010011 N
b10100000000011110010011 '"
b10100000000011110010011 K"
b101 E
b101 d
b101 m
b101 4"
b101 N"
b1000000000000000000001000 V
b1000000000000000000001000 Q"
b10011 P
b10011 ("
b10011 ,"
b10011 6"
b10011 M"
bx \
bx f
bx :"
b1000000000000000000001100 W
b1000000000000000000001100 g
b1000000000000000000001100 8"
b1000011110100001000011100 +
b1000011110100001000011100 <"
b1000011110100001000011100 G"
1Y
0Q
1F
#55
0F
#60
bx q
b0 ,
b0 R"
1?
b10100000000011110010011 O
b10100000000011110010011 C"
b10100000000011110010011 L"
b101 ]
b101 h
b101 o
b101 ;"
b101 F"
b10011 N
b10011 '"
b10011 K"
bx [
bx n
b0 E
b0 d
b0 m
b0 4"
b0 N"
b1000000000000000000001100 V
b1000000000000000000001100 Q"
1F
#65
0F
#70
0"
1$
b10011 O
b10011 C"
b10011 L"
b0 ]
b0 h
b0 o
b0 ;"
b0 F"
b101 *
b101 H"
1F
#75
0F
#80
b100 l
b100 %
b100 i
b100 -"
b1000011110100001000100000 9
b1000011110100001000100000 k
b1000011110100001000011100 j
13
b1001 |
1(
b0 &
b0 {
b0 +
b0 <"
b0 G"
b0 /
b0 !"
b0 D"
b111100010010000000100011 -
b111100010010000000100011 0"
0I
b1 L
b1 +"
0@
b1000011110100001000011100 Z
b1000011110100001000011100 e
b1000011110100001000011100 9"
b111100010010001000100011 P
b111100010010001000100011 ("
b111100010010001000100011 ,"
b111100010010001000100011 6"
b111100010010001000100011 M"
b101 \
b101 f
b101 :"
b100100000000011110010011 M
b100100000000011110010011 t
b100100000000011110010011 &"
b100100000000011110010011 5"
b100100000000011110010011 J"
b1000000000000000000010000 T
b1000000000000000000010000 7"
b1000000000000000000010100 U
b1000000000000000000010100 ."
0Y
1Q
1F
#85
0F
#90
b1001 l
b101 q
b1000011110100001000100000 ,
b1000011110100001000100000 R"
b1001 %
b1001 i
b1001 -"
b1001 9
b1001 k
b0 j
0(
03
b1 &
b1 {
b1000011110100001000011100 +
b1000011110100001000011100 <"
b1000011110100001000011100 G"
b10 /
b10 !"
b10 D"
b0 |
1)
b10010011110000011 -
b10010011110000011 0"
0H
0>
b111100010010001000100011 N
b111100010010001000100011 '"
b111100010010001000100011 K"
b101 [
b101 n
b1000011110100001000100000 E
b1000011110100001000100000 d
b1000011110100001000100000 m
b1000011110100001000100000 4"
b1000011110100001000100000 N"
1I
b0 L
b0 +"
1@
b0 Z
b0 e
b0 9"
b100100000000011110010011 P
b100100000000011110010011 ("
b100100000000011110010011 ,"
b100100000000011110010011 6"
b100100000000011110010011 M"
b1000000000000000000010000 W
b1000000000000000000010000 g
b1000000000000000000010000 8"
b111100010010000000100011 M
b111100010010000000100011 t
b111100010010000000100011 &"
b111100010010000000100011 5"
b111100010010000000100011 J"
b1000000000000000000010100 T
b1000000000000000000010100 7"
b1000000000000000000011000 U
b1000000000000000000011000 ."
1F
#95
0F
#100
b0 l
b1001 ,
b1001 R"
b0 %
b0 i
b0 -"
b1000011110100001000011100 9
b1000011110100001000011100 k
b1000011110100001000011100 j
1#
13
b0 2
b0 y
1(
b0 &
b0 {
0)
b1001111001011110010011 -
b1001111001011110010011 0"
0?
b111100010010001000100011 O
b111100010010001000100011 C"
b111100010010001000100011 L"
b1000011110100001000100000 ]
b1000011110100001000100000 h
b1000011110100001000100000 o
b1000011110100001000100000 ;"
b1000011110100001000100000 F"
1H
1>
b100100000000011110010011 N
b100100000000011110010011 '"
b100100000000011110010011 K"
b1001 E
b1001 d
b1001 m
b1001 4"
b1001 N"
b1000000000000000000010000 V
b1000000000000000000010000 Q"
0I
1K
b1 L
b1 +"
0@
b1000011110100001000011100 Z
b1000011110100001000011100 e
b1000011110100001000011100 9"
b111100010010000000100011 P
b111100010010000000100011 ("
b111100010010000000100011 ,"
b111100010010000000100011 6"
b111100010010000000100011 M"
b1000000000000000000010100 W
b1000000000000000000010100 g
b1000000000000000000010100 8"
b10010011110000011 M
b10010011110000011 t
b10010011110000011 &"
b10010011110000011 5"
b10010011110000011 J"
b1000000000000000000011000 T
b1000000000000000000011000 7"
b1000000000000000000011100 U
b1000000000000000000011100 ."
1F
#105
0F
#110
b1001 q
b1000011110100001000011100 ,
b1000011110100001000011100 R"
b10 8
b10 u
b10 #"
b1 2
b1 y
b101 +
b101 <"
b101 G"
b1111 /
b1111 !"
b1111 D"
1"
0$
b111100010010000000100011 -
b111100010010000000100011 0"
1?
b100100000000011110010011 O
b100100000000011110010011 C"
b100100000000011110010011 L"
b1001 ]
b1001 h
b1001 o
b1001 ;"
b1001 F"
0H
1J
0>
b111100010010000000100011 N
b111100010010000000100011 '"
b111100010010000000100011 K"
b1000011110100001000011100 E
b1000011110100001000011100 d
b1000011110100001000011100 m
b1000011110100001000011100 4"
b1000011110100001000011100 N"
b1000000000000000000010100 V
b1000000000000000000010100 Q"
b0 B
1I
1S
0K
b0 L
b0 +"
1@
b10010011110000011 P
b10010011110000011 ("
b10010011110000011 ,"
b10010011110000011 6"
b10010011110000011 M"
b1000000000000000000011000 W
b1000000000000000000011000 g
b1000000000000000000011000 8"
b1001111001011110010011 M
b1001111001011110010011 t
b1001111001011110010011 &"
b1001111001011110010011 5"
b1001111001011110010011 J"
b1000000000000000000011100 T
b1000000000000000000011100 7"
b1000000000000000000100000 U
b1000000000000000000100000 ."
1F
#115
0F
#120
b1001 '
b1001 p
b1001 P"
b101 q
b1001 ,
b1001 R"
b11 7
b11 )"
0"
1$
b0 9
b0 k
b0 j
b1001 +
b1001 <"
b1001 G"
b1001 *
b1001 H"
0?
b111100010010000000100011 O
b111100010010000000100011 C"
b111100010010000000100011 L"
b1000011110100001000011100 ]
b1000011110100001000011100 h
b1000011110100001000011100 o
b1000011110100001000011100 ;"
b1000011110100001000011100 F"
b0 A
b0 O"
1H
1R
0J
1>
b10010011110000011 N
b10010011110000011 '"
b10010011110000011 K"
b1000000000000000000011000 V
b1000000000000000000011000 Q"
b1 B
b0 Z
b0 e
b0 9"
b10011 P
b10011 ("
b10011 ,"
b10011 6"
b10011 M"
b1000000000000000000011100 W
b1000000000000000000011100 g
b1000000000000000000011100 8"
1Y
0Q
1F
#125
0F
#130
b10 l
bx '
bx p
bx P"
b0 ,
b0 R"
b10 %
b10 i
b10 -"
b100100 9
b100100 k
b1001 j
0(
03
b0 8
b0 u
b1 &
b1 {
b1000011110100001000011100 +
b1000011110100001000011100 <"
b1000011110100001000011100 G"
b10 /
b10 !"
b10 D"
1)
b0 7
b0 )"
1"
0$
b10000010010011110000011 -
b10000010010011110000011 0"
1?
b10010011110000011 O
b10010011110000011 C"
b10010011110000011 L"
b1001 ]
b1001 h
b1001 o
b1001 ;"
b1001 F"
b1 A
b1 O"
b10011 N
b10011 '"
b10011 K"
b0 E
b0 d
b0 m
b0 4"
b0 N"
b1000000000000000000011100 V
b1000000000000000000011100 Q"
b10 :
b10 a
b11 ;
b11 b
b11 2"
b1001 Z
b1001 e
b1001 9"
b1001111001011110010011 P
b1001111001011110010011 ("
b1001111001011110010011 ,"
b1001111001011110010011 6"
b1001111001011110010011 M"
b1001 \
b1001 f
b1001 :"
b111100010010000000100011 M
b111100010010000000100011 t
b111100010010000000100011 &"
b111100010010000000100011 5"
b111100010010000000100011 J"
b1000000000000000000100000 T
b1000000000000000000100000 7"
b1000000000000000000100100 U
b1000000000000000000100100 ."
0Y
1Q
1F
#135
0F
#140
b0 l
b1001 q
b100100 ,
b100100 R"
0)
b0 %
b0 i
b0 -"
b0 9
b0 k
b0 j
b10011 O
b10011 C"
b10011 L"
b0 ]
b0 h
b0 o
b0 ;"
b0 F"
b1001111001011110010011 N
b1001111001011110010011 '"
b1001111001011110010011 K"
b1001 [
b1001 n
b100100 E
b100100 d
b100100 m
b100100 4"
b100100 N"
b0 :
b0 a
b0 ;
b0 b
b0 2"
b0 Z
b0 e
b0 9"
b10011 P
b10011 ("
b10011 ,"
b10011 6"
b10011 M"
b1000000000000000000100000 W
b1000000000000000000100000 g
b1000000000000000000100000 8"
1Y
0Q
1F
#145
0F
#150
b0 ,
b0 R"
b1001111001011110010011 O
b1001111001011110010011 C"
b1001111001011110010011 L"
b100100 ]
b100100 h
b100100 o
b100100 ;"
b100100 F"
b10011 N
b10011 '"
b10011 K"
b0 E
b0 d
b0 m
b0 4"
b0 N"
b1000000000000000000100000 V
b1000000000000000000100000 Q"
1F
#155
0F
#160
0"
1$
b100100 *
b100100 H"
b10011 O
b10011 C"
b10011 L"
b0 ]
b0 h
b0 o
b0 ;"
b0 F"
1F
#165
0F
#170
b1000011110100001000011100 9
b1000011110100001000011100 k
b1000011110100001000011100 j
13
b0 2
b0 y
1(
b0 &
b0 {
b100 |
b1000000000101111101011110010011 -
b1000000000101111101011110010011 0"
0I
b1 L
b1 +"
0@
b1000011110100001000011100 Z
b1000011110100001000011100 e
b1000011110100001000011100 9"
b111100010010000000100011 P
b111100010010000000100011 ("
b111100010010000000100011 ,"
b111100010010000000100011 6"
b111100010010000000100011 M"
b100100 \
b100100 f
b100100 :"
b10000010010011110000011 M
b10000010010011110000011 t
b10000010010011110000011 &"
b10000010010011110000011 5"
b10000010010011110000011 J"
b1000000000000000000100100 T
b1000000000000000000100100 7"
b1000000000000000000101000 U
b1000000000000000000101000 ."
0Y
1Q
1F
#175
0F
#180
b1000011110100001000100000 9
b1000011110100001000100000 k
b100 l
b100100 q
b1001 '
b1001 p
b1001 P"
b1000011110100001000011100 ,
b1000011110100001000011100 R"
b100 %
b100 i
b100 -"
b111 8
b111 u
b1 #"
b1 2
b1 y
b100100 +
b100100 <"
b100100 G"
b1111 /
b1111 !"
b1111 D"
1"
0$
b111100010010001000100011 -
b111100010010001000100011 0"
0H
0>
b111100010010000000100011 N
b111100010010000000100011 '"
b111100010010000000100011 K"
b100100 [
b100100 n
b1000011110100001000011100 E
b1000011110100001000011100 d
b1000011110100001000011100 m
b1000011110100001000011100 4"
b1000011110100001000011100 N"
b0 B
1I
b0 L
b0 +"
1@
b10000010010011110000011 P
b10000010010011110000011 ("
b10000010010011110000011 ,"
b10000010010011110000011 6"
b10000010010011110000011 M"
b1000000000000000000100100 W
b1000000000000000000100100 g
b1000000000000000000100100 8"
b1000000000101111101011110010011 M
b1000000000101111101011110010011 t
b1000000000101111101011110010011 &"
b1000000000101111101011110010011 5"
b1000000000101111101011110010011 J"
b1000000000000000000101000 T
b1000000000000000000101000 7"
b1000000000000000000101100 U
b1000000000000000000101100 ."
1F
#185
0F
#190
b0 l
b101 ,
b101 R"
b11 7
b11 )"
b0 %
b0 i
b0 -"
0"
1$
b0 9
b0 k
b0 j
b101 '
b101 p
b101 P"
0?
b111100010010000000100011 O
b111100010010000000100011 C"
b111100010010000000100011 L"
b1000011110100001000011100 ]
b1000011110100001000011100 h
b1000011110100001000011100 o
b1000011110100001000011100 ;"
b1000011110100001000011100 F"
b0 A
b0 O"
1H
1>
b10000010010011110000011 N
b10000010010011110000011 '"
b10000010010011110000011 K"
b1000011110100001000100000 E
b1000011110100001000100000 d
b1000011110100001000100000 m
b1000011110100001000100000 4"
b1000011110100001000100000 N"
b1000000000000000000100100 V
b1000000000000000000100100 Q"
b1 B
b0 Z
b0 e
b0 9"
b10011 P
b10011 ("
b10011 ,"
b10011 6"
b10011 M"
b1000000000000000000101000 W
b1000000000000000000101000 g
b1000000000000000000101000 8"
1Y
0Q
1F
#195
0F
#200
bx '
bx p
bx P"
b0 ,
b0 R"
b10 9
b10 k
b10000000001 l
b101 j
b10000000001 %
b10000000001 i
b10000000001 -"
0(
03
b0 8
b0 u
b1 &
b1 {
b1000011110100001000011100 +
b1000011110100001000011100 <"
b1000011110100001000011100 G"
b10 /
b10 !"
b10 D"
1)
b0 7
b0 )"
1"
0$
b10000010000011110010011 -
b10000010000011110010011 0"
1?
b10000010010011110000011 O
b10000010010011110000011 C"
b10000010010011110000011 L"
b101 ]
b101 h
b101 o
b101 ;"
b101 F"
b1 A
b1 O"
b10011 N
b10011 '"
b10011 K"
b0 E
b0 d
b0 m
b0 4"
b0 N"
b1000000000000000000101000 V
b1000000000000000000101000 Q"
b111 :
b111 a
b11 ;
b11 b
b11 2"
b100100 Z
b100100 e
b100100 9"
b1000000000101111101011110010011 P
b1000000000101111101011110010011 ("
b1000000000101111101011110010011 ,"
b1000000000101111101011110010011 6"
b1000000000101111101011110010011 M"
b111100010010001000100011 M
b111100010010001000100011 t
b111100010010001000100011 &"
b111100010010001000100011 5"
b111100010010001000100011 J"
b1000000000000000000101100 T
b1000000000000000000101100 7"
b1000000000000000000110000 U
b1000000000000000000110000 ."
0Y
1Q
1F
#205
0F
#210
b0 l
b10 ,
b10 R"
0)
b0 %
b0 i
b0 -"
b0 9
b0 k
b0 j
b10011 O
b10011 C"
b10011 L"
b0 ]
b0 h
b0 o
b0 ;"
b0 F"
b1000000000101111101011110010011 N
b1000000000101111101011110010011 '"
b1000000000101111101011110010011 K"
b10 E
b10 d
b10 m
b10 4"
b10 N"
b0 :
b0 a
b0 ;
b0 b
b0 2"
b0 Z
b0 e
b0 9"
b10011 P
b10011 ("
b10011 ,"
b10011 6"
b10011 M"
b1000000000000000000101100 W
b1000000000000000000101100 g
b1000000000000000000101100 8"
b101 *
b101 H"
1Y
0Q
1F
#215
0F
#220
b0 ,
b0 R"
b1000000000101111101011110010011 O
b1000000000101111101011110010011 C"
b1000000000101111101011110010011 L"
b10 ]
b10 h
b10 o
b10 ;"
b10 F"
b10011 N
b10011 '"
b10011 K"
b0 E
b0 d
b0 m
b0 4"
b0 N"
b1000000000000000000101100 V
b1000000000000000000101100 Q"
b101 \
b101 f
b101 :"
1F
#225
0F
#230
0"
1$
b101 q
b10011 O
b10011 C"
b10011 L"
b0 ]
b0 h
b0 o
b0 ;"
b0 F"
b101 [
b101 n
b10 *
b10 H"
1F
#235
0F
#240
b100 l
b100 %
b100 i
b100 -"
b1000011110100001000100000 9
b1000011110100001000100000 k
b1000011110100001000011100 j
13
1(
b0 &
b0 {
b111100010010011000100011 -
b111100010010011000100011 0"
0I
b1 L
b1 +"
0@
b1000011110100001000011100 Z
b1000011110100001000011100 e
b1000011110100001000011100 9"
b111100010010001000100011 P
b111100010010001000100011 ("
b111100010010001000100011 ,"
b111100010010001000100011 6"
b111100010010001000100011 M"
b10 \
b10 f
b10 :"
b10000010000011110010011 M
b10000010000011110010011 t
b10000010000011110010011 &"
b10000010000011110010011 5"
b10000010000011110010011 J"
b1000000000000000000110000 T
b1000000000000000000110000 7"
b1000000000000000000110100 U
b1000000000000000000110100 ."
0Y
1Q
1F
#245
0F
#250
b10 q
b101 '
b101 p
b101 P"
b1000011110100001000100000 ,
b1000011110100001000100000 R"
0(
03
b1 &
b1 {
b1100 |
1)
b10000011110010011 -
b10000011110010011 0"
0H
0>
b111100010010001000100011 N
b111100010010001000100011 '"
b111100010010001000100011 K"
b10 [
b10 n
b1000011110100001000100000 E
b1000011110100001000100000 d
b1000011110100001000100000 m
b1000011110100001000100000 4"
b1000011110100001000100000 N"
1I
b0 L
b0 +"
1@
b10000010000011110010011 P
b10000010000011110010011 ("
b10000010000011110010011 ,"
b10000010000011110010011 6"
b10000010000011110010011 M"
b1000000000000000000110000 W
b1000000000000000000110000 g
b1000000000000000000110000 8"
b111100010010011000100011 M
b111100010010011000100011 t
b111100010010011000100011 &"
b111100010010011000100011 5"
b111100010010011000100011 J"
b1000000000000000000110100 T
b1000000000000000000110100 7"
b1000000000000000000111000 U
b1000000000000000000111000 ."
1F
#255
0F
